Lab_04/Mpy_floaitng_point/log/log_mpy_FP.txt
# ----------------------------------------------------------------
# UVM-1.1d
# (C) 2007-2013 Mentor Graphics Corporation
# (C) 2007-2013 Cadence Design Systems, Inc.
# (C) 2006-2013 Synopsys, Inc.
# (C) 2011-2013 Cypress Semiconductor Corp.
# ----------------------------------------------------------------
# 
#   ***********       IMPORTANT RELEASE NOTES         ************
# 
#   You are using a version of the UVM library that has been compiled
#   with `UVM_NO_DEPRECATED undefined.
#   See http://www.eda.org/svdb/view.php?id=3313 for more details.
# 
#   You are using a version of the UVM library that has been compiled
#   with `UVM_OBJECT_MUST_HAVE_CONSTRUCTOR undefined.
#   See http://www.eda.org/svdb/view.php?id=3770 for more details.
# 
#       (Specify +UVM_NO_RELNOTES to turn off this notice)
# 
# UVM_INFO verilog_src/questa_uvm_pkg-1.2/src/questa_uvm_pkg.sv(215) @ 0: reporter [Questa UVM] QUESTA_UVM-1.2.3
# UVM_INFO verilog_src/questa_uvm_pkg-1.2/src/questa_uvm_pkg.sv(216) @ 0: reporter [Questa UVM]  questa_uvm::init(+struct)
# ** Warning: There is an 'U'|'X'|'W'|'Z'|'-' in an arithmetic operand, the result will be 'X'(es).
#    Time: 0 ns  Iteration: 0  Instance: /top/mul/FPmul_under_test/I3/I11
# ** Warning: There is an 'U'|'X'|'W'|'Z'|'-' in an arithmetic operand, the result will be 'X'(es).
#    Time: 0 ns  Iteration: 0  Instance: /top/mul/FPmul_under_test/I3/I11
# ** Warning: There is an 'U'|'X'|'W'|'Z'|'-' in an arithmetic operand, the result will be 'X'(es).
#    Time: 0 ns  Iteration: 0  Instance: /top/mul/FPmul_under_test/I2
# ** Warning: There is an 'U'|'X'|'W'|'Z'|'-' in an arithmetic operand, the result will be 'X'(es).
#    Time: 0 ns  Iteration: 0  Instance: /top/mul/FPmul_under_test/I2
# ** Warning: There is an 'U'|'X'|'W'|'Z'|'-' in an arithmetic operand, the result will be 'X'(es).
#    Time: 0 ns  Iteration: 0  Instance: /top/mul/FPmul_under_test/I2
# ** Warning: There is an 'U'|'X'|'W'|'Z'|'-' in an arithmetic operand, the result will be 'X'(es).
#    Time: 0 ns  Iteration: 0  Instance: /top/mul/FPmul_under_test/I2
# ** Warning: There is an 'U'|'X'|'W'|'Z'|'-' in an arithmetic operand, the result will be 'X'(es).
#    Time: 0 ns  Iteration: 0  Instance: /top/mul/FPmul_under_test/I2
# ** Warning: There is an 'U'|'X'|'W'|'Z'|'-' in an arithmetic operand, the result will be 'X'(es).
#    Time: 0 ns  Iteration: 0  Instance: /top/mul/FPmul_under_test/I2
# ** Warning: There is an 'U'|'X'|'W'|'Z'|'-' in an arithmetic operand, the result will be 'X'(es).
#    Time: 0 ns  Iteration: 0  Instance: /top/mul/FPmul_under_test/I2
# UVM_INFO @ 0: reporter [RNTST] Running test simple_test...
# ** Warning: There is an 'U'|'X'|'W'|'Z'|'-' in an arithmetic operand, the result will be 'X'(es).
#    Time: 0 ns  Iteration: 1  Instance: /top/mul/FPmul_under_test/I2
# ** Warning: There is an 'U'|'X'|'W'|'Z'|'-' in an arithmetic operand, the result will be 'X'(es).
#    Time: 0 ns  Iteration: 1  Instance: /top/mul/FPmul_under_test/I2
# ** Warning: There is an 'U'|'X'|'W'|'Z'|'-' in an arithmetic operand, the result will be 'X'(es).
#    Time: 0 ns  Iteration: 1  Instance: /top/mul/FPmul_under_test/I2
# ** Warning: There is an 'U'|'X'|'W'|'Z'|'-' in an arithmetic operand, the result will be 'X'(es).
#    Time: 0 ns  Iteration: 1  Instance: /top/mul/FPmul_under_test/I2
# ** Warning: There is an 'U'|'X'|'W'|'Z'|'-' in an arithmetic operand, the result will be 'X'(es).
#    Time: 5 ns  Iteration: 2  Instance: /top/mul/FPmul_under_test/I2
# ** Warning: There is an 'U'|'X'|'W'|'Z'|'-' in an arithmetic operand, the result will be 'X'(es).
#    Time: 5 ns  Iteration: 2  Instance: /top/mul/FPmul_under_test/I2
# ** Warning: There is an 'U'|'X'|'W'|'Z'|'-' in an arithmetic operand, the result will be 'X'(es).
#    Time: 5 ns  Iteration: 2  Instance: /top/mul/FPmul_under_test/I2
# ** Warning: There is an 'U'|'X'|'W'|'Z'|'-' in an arithmetic operand, the result will be 'X'(es).
#    Time: 5 ns  Iteration: 2  Instance: /top/mul/FPmul_under_test/I2
# ** Warning: There is an 'U'|'X'|'W'|'Z'|'-' in an arithmetic operand, the result will be 'X'(es).
#    Time: 5 ns  Iteration: 2  Instance: /top/mul/FPmul_under_test/I2
# ** Warning: There is an 'U'|'X'|'W'|'Z'|'-' in an arithmetic operand, the result will be 'X'(es).
#    Time: 5 ns  Iteration: 2  Instance: /top/mul/FPmul_under_test/I2
# ** Warning: There is an 'U'|'X'|'W'|'Z'|'-' in an arithmetic operand, the result will be 'X'(es).
#    Time: 5 ns  Iteration: 3  Instance: /top/mul/FPmul_under_test/I3/I11
# ** Warning: There is an 'U'|'X'|'W'|'Z'|'-' in an arithmetic operand, the result will be 'X'(es).
#    Time: 5 ns  Iteration: 3  Instance: /top/mul/FPmul_under_test/I3/I11
# FPmultiplier: input A = 0.000000, input B = 0.000000, output OUT = 0.000000
# FPmultiplier: input A = 00101011100100100110001111011001, input B = 00001010011100000010010111111101, output OUT = xxxxxxxxxxxxxxxxxxxxxxxxxxxxxxxx
# refmod: input A = 00101011100100100110001111011001, input B = 00001010011100000010010111111101, output OUT = 00000000000000000000000000000000
# UVM_INFO @ 45: reporter [MISCMP] Miscompare for exp.data: lhs = 'h0 : rhs = 'h0xxxxxxxx
# UVM_INFO @ 45: reporter [MISCMP] 1 Miscompare(s) for object tr@825 vs. exp@617
#  
# UVM_WARNING @ 45: uvm_test_top.env_h.comp [Comparator Mismatch] 
# Comparing 00000000000000000000000000000000 with xxxxxxxxxxxxxxxxxxxxxxxxxxxxxxxx
# FPmultiplier: input A = 0.000000, input B = -0.000000, output OUT = 0.000000
# FPmultiplier: input A = 00000100110010100111111010001011, input B = 10100001000100100111100111110100, output OUT = xxxxxxxxxxxxxxxxxxxxxxxxxxxxxxxx
# refmod: input A = 00000100110010100111111010001011, input B = 10100001000100100111100111110100, output OUT = 00000000000000000000000000000000
# UVM_INFO @ 75: reporter [MISCMP] Miscompare for exp.data: lhs = 'h9 : rhs = 'h0
# UVM_INFO @ 75: reporter [MISCMP] 1 Miscompare(s) for object tr@825 vs. exp@617
#  
# UVM_WARNING @ 75: uvm_test_top.env_h.comp [Comparator Mismatch] 
# Comparing 00000000000000000000000000001001 with 00000000000000000000000000000000
# FPmultiplier: input A = 0.000000, input B = -3634664419216517496832.000000, output OUT = 0.000000
# FPmultiplier: input A = 00001111100011001011000101110100, input B = 11100011010001010000100100011010, output OUT = 00000000000000000000000000000000
# refmod: input A = 00001111100011001011000101110100, input B = 11100011010001010000100100011010, output OUT = 00000000000000000000000000001001
#  
# UVM_INFO @ 105: uvm_test_top.env_h.comp [Comparator Match] 
# Comparing 10000000000000000000000000000000 with 10000000000000000000000000000000
# FPmultiplier: input A = -58806067955672318115386974330377207808.000000, input B = -70372476236280636002269185179648.000000, output OUT = -0.000000
# FPmultiplier: input A = 11111110001100001111011010001100, input B = 11110100010111100000111001101111, output OUT = 10000000000000000000000000000000
# refmod: input A = 11111110001100001111011010001100, input B = 11110100010111100000111001101111, output OUT = 10000000000000000000000000000000
#  
# UVM_INFO @ 135: uvm_test_top.env_h.comp [Comparator Match] 
# Comparing 10110011010110001001001100011110 with 10110011010110001001001100011110
# FPmultiplier: input A = -0.000000, input B = -1123752354475147264.000000, output OUT = -0.000000
# FPmultiplier: input A = 10011111110111100000100101001111, input B = 11011101011110011000010111101101, output OUT = 10110011010110001001001100011110
# refmod: input A = 10011111110111100000100101001111, input B = 11011101011110011000010111101101, output OUT = 10110011010110001001001100011110
#  
# UVM_INFO @ 165: uvm_test_top.env_h.comp [Comparator Match] 
# Comparing 01111111100000000000000000000000 with 01111111100000000000000000000000
# FPmultiplier: input A = 0.000000, input B = 48.449173, output OUT = inf
# FPmultiplier: input A = 00001000010111101000011100010110, input B = 01000010010000011100101111110100, output OUT = 01111111100000000000000000000000
# refmod: input A = 00001000010111101000011100010110, input B = 01000010010000011100101111110100, output OUT = 01111111100000000000000000000000
#  
# UVM_INFO @ 195: uvm_test_top.env_h.comp [Comparator Match] 
# Comparing 00111101110110000110101100110110 with 00111101110110000110101100110110
# FPmultiplier: input A = -50696295327635341312.000000, input B = -240329734262254225028284416.000000, output OUT = 0.105673
# FPmultiplier: input A = 11100000001011111110001101011011, input B = 11101011010001101100101111001101, output OUT = 00111101110110000110101100110110
# refmod: input A = 11100000001011111110001101011011, input B = 11101011010001101100101111001101, output OUT = 00111101110110000110101100110110
#  
# UVM_INFO @ 225: uvm_test_top.env_h.comp [Comparator Match] 
# Comparing 00001011001010000111010100100001 with 00001011001010000111010100100001
# FPmultiplier: input A = -0.000000, input B = -493793.500000, output OUT = 0.000000
# FPmultiplier: input A = 10010110111000011011110110000001, input B = 11001000111100010001110000110000, output OUT = 00001011001010000111010100100001
# refmod: input A = 10010110111000011011110110000001, input B = 11001000111100010001110000110000, output OUT = 00001011001010000111010100100001
#  
# UVM_INFO @ 255: uvm_test_top.env_h.comp [Comparator Match] 
# Comparing 01111111100000000000000000000000 with 01111111100000000000000000000000
# FPmultiplier: input A = -501561062641451598348288.000000, input B = -961810240.000000, output OUT = inf
# FPmultiplier: input A = 11100110110101000110101101011100, input B = 11001110011001010101000000111101, output OUT = 01111111100000000000000000000000
# refmod: input A = 11100110110101000110101101011100, input B = 11001110011001010101000000111101, output OUT = 01111111100000000000000000000000
#  
# UVM_INFO @ 285: uvm_test_top.env_h.comp [Comparator Match] 
# Comparing 00100000010101001001110001000001 with 00100000010101001001110001000001
# FPmultiplier: input A = -0.000000, input B = -0.000000, output OUT = 0.000000
# FPmultiplier: input A = 10001101011101001001111010100100, input B = 10101111001000100101100101001001, output OUT = 00100000010101001001110001000001
# refmod: input A = 10001101011101001001111010100100, input B = 10101111001000100101100101001001, output OUT = 00100000010101001001110001000001
#  
# UVM_INFO @ 315: uvm_test_top.env_h.comp [Comparator Match] 
# Comparing 01110101101111100100011010011101 with 01110101101111100100011010011101
# FPmultiplier: input A = 129273919994593280.000000, input B = 11548883943424.000000, output OUT = 482406548152044729419664451436544.000000
# FPmultiplier: input A = 01011011111001011010001011111001, input B = 01010101001010000000111011110010, output OUT = 01110101101111100100011010011101
# refmod: input A = 01011011111001011010001011111001, input B = 01010101001010000000111011110010, output OUT = 01110101101111100100011010011101
# UVM_INFO @ 345: reporter [MISCMP] Miscompare for exp.data: lhs = 'h13643 : rhs = 'h0
# UVM_INFO @ 345: reporter [MISCMP] 1 Miscompare(s) for object tr@825 vs. exp@617
#  
# UVM_WARNING @ 345: uvm_test_top.env_h.comp [Comparator Mismatch] 
# Comparing 00000000000000010011011001000011 with 00000000000000000000000000000000
# FPmultiplier: input A = -3333851.250000, input B = -1249732403920896000.000000, output OUT = 0.000000
# FPmultiplier: input A = 11001010010010110111101101101101, input B = 11011101100010101011111110001000, output OUT = 00000000000000000000000000000000
# refmod: input A = 11001010010010110111101101101101, input B = 11011101100010101011111110001000, output OUT = 00000000000000010011011001000011
#  
# UVM_INFO @ 375: uvm_test_top.env_h.comp [Comparator Match] 
# Comparing 01110001100101101100000001011011 with 01110001100101101100000001011011
# FPmultiplier: input A = 182071147432965713166336.000000, input B = 0.000000, output OUT = 1492969438909366727935206096896.000000
# FPmultiplier: input A = 01100110000110100011100001100011, input B = 00100011110101111111111011100011, output OUT = 01110001100101101100000001011011
# refmod: input A = 01100110000110100011100001100011, input B = 00100011110101111111111011100011, output OUT = 01110001100101101100000001011011
#  
# UVM_INFO @ 405: uvm_test_top.env_h.comp [Comparator Match] 
# Comparing 01101000010111001001000110001100 with 01101000010111001001000110001100
# FPmultiplier: input A = -1030253379584.000000, input B = 0.000000, output OUT = 4166421968740700567633920.000000
# FPmultiplier: input A = 11010011011011111101111111100011, input B = 00010100111010010111000001010011, output OUT = 01101000010111001001000110001100
# refmod: input A = 11010011011011111101111111100011, input B = 00010100111010010111000001010011, output OUT = 01101000010111001001000110001100
#  
# UVM_INFO @ 435: uvm_test_top.env_h.comp [Comparator Match] 
# Comparing 01001010100000100001111011101000 with 01001010100000100001111011101000
# FPmultiplier: input A = 0.000000, input B = 205617991305492010681452269142016.000000, output OUT = 4263796.000000
# FPmultiplier: input A = 00000101011110110001011100100001, input B = 01110101001000100011010000111001, output OUT = 01001010100000100001111011101000
# refmod: input A = 00000101011110110001011100100001, input B = 01110101001000100011010000111001, output OUT = 01001010100000100001111011101000
#  
# UVM_INFO @ 465: uvm_test_top.env_h.comp [Comparator Match] 
# Comparing 10101000110110101011110000000101 with 10101000110110101011110000000101
# FPmultiplier: input A = -0.000010, input B = -0.000000, output OUT = -0.000000
# FPmultiplier: input A = 10110111001010010010010100011110, input B = 10011011011101101100011111000110, output OUT = 10101000110110101011110000000101
# refmod: input A = 10110111001010010010010100011110, input B = 10011011011101101100011111000110, output OUT = 10101000110110101011110000000101
#  
# UVM_INFO @ 495: uvm_test_top.env_h.comp [Comparator Match] 
# Comparing 00111011000111110001011111011011 with 00111011000111110001011111011011
# FPmultiplier: input A = 0.000000, input B = 0.000000, output OUT = 0.002428
# FPmultiplier: input A = 00110100001110011000001000100001, input B = 00100100100111011001010001011011, output OUT = 00111011000111110001011111011011
# refmod: input A = 00110100001110011000001000100001, input B = 00100100100111011001010001011011, output OUT = 00111011000111110001011111011011
#  
# UVM_INFO @ 525: uvm_test_top.env_h.comp [Comparator Match] 
# Comparing 00010011001000110000110110101010 with 00010011001000110000110110101010
# FPmultiplier: input A = 1166356712064548864.000000, input B = 2.320973, output OUT = 0.000000
# FPmultiplier: input A = 01011101100000010111110111011010, input B = 01000000000101001000101011010010, output OUT = 00010011001000110000110110101010
# refmod: input A = 01011101100000010111110111011010, input B = 01000000000101001000101011010010, output OUT = 00010011001000110000110110101010
#  
# UVM_INFO @ 555: uvm_test_top.env_h.comp [Comparator Match] 
# Comparing 00011001011001000110000010011111 with 00011001011001000110000010011111
# FPmultiplier: input A = 10831624352287382568960.000000, input B = 0.000000, output OUT = 0.000000
# FPmultiplier: input A = 01100100000100101100101110111111, input B = 00011010011111110110110111101110, output OUT = 00011001011001000110000010011111
# refmod: input A = 01100100000100101100101110111111, input B = 00011010011111110110110111101110, output OUT = 00011001011001000110000010011111
#  
# UVM_INFO @ 585: uvm_test_top.env_h.comp [Comparator Match] 
# Comparing 01011110000101100100010111110100 with 01011110000101100100010111110100
# FPmultiplier: input A = 433071.968750, input B = -9332405961709026649720344574689280.000000, output OUT = 2707082289979850752.000000
# FPmultiplier: input A = 01001000110100110111010111111111, input B = 11110111111001100000111111000011, output OUT = 01011110000101100100010111110100
# refmod: input A = 01001000110100110111010111111111, input B = 11110111111001100000111111000011, output OUT = 01011110000101100100010111110100
#  
# UVM_INFO @ 615: uvm_test_top.env_h.comp [Comparator Match] 
# Comparing 00111111000100100111011111111100 with 00111111000100100111011111111100
# FPmultiplier: input A = -0.000000, input B = 0.000000, output OUT = 0.572143
# FPmultiplier: input A = 10011100110011011100011010010001, input B = 00000010100011001111000011011011, output OUT = 00111111000100100111011111111100
# refmod: input A = 10011100110011011100011010010001, input B = 00000010100011001111000011011011, output OUT = 00111111000100100111011111111100
#  
# UVM_INFO @ 645: uvm_test_top.env_h.comp [Comparator Match] 
# Comparing 11111111100000000000000000000000 with 11111111100000000000000000000000
# FPmultiplier: input A = -0.000000, input B = -3172271616.000000, output OUT = -inf
# FPmultiplier: input A = 10011011011000010011000001101011, input B = 11001111001111010001010100000110, output OUT = 11111111100000000000000000000000
# refmod: input A = 10011011011000010011000001101011, input B = 11001111001111010001010100000110, output OUT = 11111111100000000000000000000000
#  
# UVM_INFO @ 675: uvm_test_top.env_h.comp [Comparator Match] 
# Comparing 10000000000000000000000000000000 with 10000000000000000000000000000000
# FPmultiplier: input A = -16187205.000000, input B = 1550565970381440839023463736367120384.000000, output OUT = -0.000000
# FPmultiplier: input A = 11001011011101101111111101000101, input B = 01111011100101010101000001100111, output OUT = 10000000000000000000000000000000
# refmod: input A = 11001011011101101111111101000101, input B = 01111011100101010101000001100111, output OUT = 10000000000000000000000000000000
#  
# UVM_INFO @ 705: uvm_test_top.env_h.comp [Comparator Match] 
# Comparing 00101011001001100101001100111101 with 00101011001001100101001100111101
# FPmultiplier: input A = -0.000000, input B = -4625793262785149272064.000000, output OUT = 0.000000
# FPmultiplier: input A = 10100110111000101111100101010011, input B = 11100011011110101100001111000111, output OUT = 00101011001001100101001100111101
# refmod: input A = 10100110111000101111100101010011, input B = 11100011011110101100001111000111, output OUT = 00101011001001100101001100111101
#  
# UVM_INFO @ 735: uvm_test_top.env_h.comp [Comparator Match] 
# Comparing 11111111100000000000000000000000 with 11111111100000000000000000000000
# FPmultiplier: input A = -0.000001, input B = -2848148461943139598336000.000000, output OUT = -inf
# FPmultiplier: input A = 10110101000110001100011001101111, input B = 11101000000101101100011110011100, output OUT = 11111111100000000000000000000000
# refmod: input A = 10110101000110001100011001101111, input B = 11101000000101101100011110011100, output OUT = 11111111100000000000000000000000
#  
# UVM_INFO @ 765: uvm_test_top.env_h.comp [Comparator Match] 
# Comparing 01001010110111100101010100001111 with 01001010110111100101010100001111
# FPmultiplier: input A = 38924423941388322163654656.000000, input B = -0.000000, output OUT = 7285383.500000
# FPmultiplier: input A = 01101010000000001100101001000101, input B = 10001100010010000110111000100110, output OUT = 01001010110111100101010100001111
# refmod: input A = 01101010000000001100101001000101, input B = 10001100010010000110111000100110, output OUT = 01001010110111100101010100001111
#  
# UVM_INFO @ 795: uvm_test_top.env_h.comp [Comparator Match] 
# Comparing 01011101101100111111011011001001 with 01011101101100111111011011001001
# FPmultiplier: input A = -0.000033, input B = 0.000000, output OUT = 1620971647362138112.000000
# FPmultiplier: input A = 10111000000010001000110011000110, input B = 00010101010010110000100001100010, output OUT = 01011101101100111111011011001001
# refmod: input A = 10111000000010001000110011000110, input B = 00010101010010110000100001100010, output OUT = 01011101101100111111011011001001
#  
# UVM_INFO @ 825: uvm_test_top.env_h.comp [Comparator Match] 
# Comparing 10110110110010011010101011100000 with 10110110110010011010101011100000
# FPmultiplier: input A = -14876033187634695060324352.000000, input B = 306214699008.000000, output OUT = -0.000006
# FPmultiplier: input A = 11101001010001001110000111110110, input B = 01010010100011101001011110100011, output OUT = 10110110110010011010101011100000
# refmod: input A = 11101001010001001110000111110110, input B = 01010010100011101001011110100011, output OUT = 10110110110010011010101011100000
#  
# UVM_INFO @ 855: uvm_test_top.env_h.comp [Comparator Match] 
# Comparing 10001101110110001001100000110011 with 10001101110110001001100000110011
# FPmultiplier: input A = 961411726681418771211804832109166592.000000, input B = 0.000727, output OUT = -0.000000
# FPmultiplier: input A = 01111011001110010010100101000010, input B = 00111010001111100111111101111110, output OUT = 10001101110110001001100000110011
# refmod: input A = 01111011001110010010100101000010, input B = 00111010001111100111111101111110, output OUT = 10001101110110001001100000110011
#  
# UVM_INFO @ 885: uvm_test_top.env_h.comp [Comparator Match] 
# Comparing 11111100010110110101001111101010 with 11111100010110110101001111101010
# FPmultiplier: input A = 0.000000, input B = 0.067238, output OUT = -4555259965625034708593452828961275904.000000
# FPmultiplier: input A = 00010110100101000010101000100010, input B = 00111101100010011011001111010101, output OUT = 11111100010110110101001111101010
# refmod: input A = 00010110100101000010101000100010, input B = 00111101100010011011001111010101, output OUT = 11111100010110110101001111101010
#  
# UVM_INFO @ 915: uvm_test_top.env_h.comp [Comparator Match] 
# Comparing 01110110000010011100100011010110 with 01110110000010011100100011010110
# FPmultiplier: input A = -575227292297662542431600785752064.000000, input B = -0.000000, output OUT = 698650494498808370861047329849344.000000
# FPmultiplier: input A = 11110101111000101110001100011101, input B = 10000110011101011101010110110100, output OUT = 01110110000010011100100011010110
# refmod: input A = 11110101111000101110001100011101, input B = 10000110011101011101010110110100, output OUT = 01110110000010011100100011010110
#  
# UVM_INFO @ 945: uvm_test_top.env_h.comp [Comparator Match] 
# Comparing 00010100100111110110010101000010 with 00010100100111110110010101000010
# FPmultiplier: input A = 0.000000, input B = -862.034119, output OUT = 0.000000
# FPmultiplier: input A = 00101110110100011000100100100100, input B = 11000100010101111000001000101111, output OUT = 00010100100111110110010101000010
# refmod: input A = 00101110110100011000100100100100, input B = 11000100010101111000001000101111, output OUT = 00010100100111110110010101000010
#  
# UVM_INFO @ 975: uvm_test_top.env_h.comp [Comparator Match] 
# Comparing 00111100110110011110000011000001 with 00111100110110011110000011000001
# FPmultiplier: input A = -0.000004, input B = -0.000000, output OUT = 0.026596
# FPmultiplier: input A = 10110110011110100010010100100011, input B = 10101001001001001101111100101010, output OUT = 00111100110110011110000011000001
# refmod: input A = 10110110011110100010010100100011, input B = 10101001001001001101111100101010, output OUT = 00111100110110011110000011000001
#  
# UVM_INFO @ 1005: uvm_test_top.env_h.comp [Comparator Match] 
# Comparing 10110011101100000110010010111011 with 10110011101100000110010010111011
# FPmultiplier: input A = 167703474883002368.000000, input B = 1442051880108092439920640.000000, output OUT = -0.000000
# FPmultiplier: input A = 01011100000101001111001101011011, input B = 01100111100110001010111011100101, output OUT = 10110011101100000110010010111011
# refmod: input A = 01011100000101001111001101011011, input B = 01100111100110001010111011100101, output OUT = 10110011101100000110010010111011
#  
# UVM_INFO @ 1035: uvm_test_top.env_h.comp [Comparator Match] 
# Comparing 00100000001000010001100111011010 with 00100000001000010001100111011010
# FPmultiplier: input A = 146814533799551263824235185831936.000000, input B = -0.000000, output OUT = 0.000000
# FPmultiplier: input A = 01110100111001111010000111101011, input B = 10100001001001011111011011010000, output OUT = 00100000001000010001100111011010
# refmod: input A = 01110100111001111010000111101011, input B = 10100001001001011111011011010000, output OUT = 00100000001000010001100111011010
#  
# UVM_INFO @ 1065: uvm_test_top.env_h.comp [Comparator Match] 
# Comparing 01111111100000000000000000000000 with 01111111100000000000000000000000
# FPmultiplier: input A = 571672381064415100796928.000000, input B = 0.000000, output OUT = inf
# FPmultiplier: input A = 01100110111100100001110011011000, input B = 00101011001010000101011110101001, output OUT = 01111111100000000000000000000000
# refmod: input A = 01100110111100100001110011011000, input B = 00101011001010000101011110101001, output OUT = 01111111100000000000000000000000
#  
# UVM_INFO @ 1095: uvm_test_top.env_h.comp [Comparator Match] 
# Comparing 11010110100101100010101010101110 with 11010110100101100010101010101110
# FPmultiplier: input A = 0.000000, input B = 10665866421310849024.000000, output OUT = -82555026014208.000000
# FPmultiplier: input A = 00001110101100111010011010101101, input B = 01011111000101000000010011000101, output OUT = 11010110100101100010101010101110
# refmod: input A = 00001110101100111010011010101101, input B = 01011111000101000000010011000101, output OUT = 11010110100101100010101010101110
#  
# UVM_INFO @ 1125: uvm_test_top.env_h.comp [Comparator Match] 
# Comparing 01010010100111110011010111010101 with 01010010100111110011010111010101
# FPmultiplier: input A = 739899830849163493376.000000, input B = -0.414403, output OUT = 341901475840.000000
# FPmultiplier: input A = 01100010001000000111000010110001, input B = 10111110110101000010110010011011, output OUT = 01010010100111110011010111010101
# refmod: input A = 01100010001000000111000010110001, input B = 10111110110101000010110010011011, output OUT = 01010010100111110011010111010101
#  
# UVM_INFO @ 1155: uvm_test_top.env_h.comp [Comparator Match] 
# Comparing 00101110010011111011111101101010 with 00101110010011111011111101101010
# FPmultiplier: input A = -269824288701940648235761664.000000, input B = 3489856.750000, output OUT = 0.000000
# FPmultiplier: input A = 11101011010111110011000110000100, input B = 01001010010101010000000100000011, output OUT = 00101110010011111011111101101010
# refmod: input A = 11101011010111110011000110000100, input B = 01001010010101010000000100000011, output OUT = 00101110010011111011111101101010
#  
# UVM_INFO @ 1185: uvm_test_top.env_h.comp [Comparator Match] 
# Comparing 11100001100001001111100101000111 with 11100001100001001111100101000111
# FPmultiplier: input A = 356668131620396466176.000000, input B = 0.000000, output OUT = -306616567921056415744.000000
# FPmultiplier: input A = 01100001100110101010111000011110, input B = 00110000110010101010011011000010, output OUT = 11100001100001001111100101000111
# refmod: input A = 01100001100110101010111000011110, input B = 00110000110010101010011011000010, output OUT = 11100001100001001111100101000111
#  
# UVM_INFO @ 1215: uvm_test_top.env_h.comp [Comparator Match] 
# Comparing 11110110001110011011010100010101 with 11110110001110011011010100010101
# FPmultiplier: input A = 0.000000, input B = -0.000000, output OUT = -941648143318961780445279040831488.000000
# FPmultiplier: input A = 00010000000001010000011010111100, input B = 10000011010010001000110001000100, output OUT = 11110110001110011011010100010101
# refmod: input A = 00010000000001010000011010111100, input B = 10000011010010001000110001000100, output OUT = 11110110001110011011010100010101
#  
# UVM_INFO @ 1245: uvm_test_top.env_h.comp [Comparator Match] 
# Comparing 01010010111101001110010001001100 with 01010010111101001110010001001100
# FPmultiplier: input A = 29.936541, input B = -72949731727581617302464659588120576.000000, output OUT = 525901103104.000000
# FPmultiplier: input A = 01000001111011110111111000001001, input B = 11111001011000001100101100110001, output OUT = 01010010111101001110010001001100
# refmod: input A = 01000001111011110111111000001001, input B = 11111001011000001100101100110001, output OUT = 01010010111101001110010001001100
#  
# UVM_INFO @ 1275: uvm_test_top.env_h.comp [Comparator Match] 
# Comparing 10000000000000000000000000000000 with 10000000000000000000000000000000
# FPmultiplier: input A = -123214867610618959062003441566998331392.000000, input B = -7690758201362192799923179702190080.000000, output OUT = -0.000000
# FPmultiplier: input A = 11111110101110010110010010100100, input B = 11110111101111011001011110000010, output OUT = 10000000000000000000000000000000
# refmod: input A = 11111110101110010110010010100100, input B = 11110111101111011001011110000010, output OUT = 10000000000000000000000000000000
#  
# UVM_INFO @ 1305: uvm_test_top.env_h.comp [Comparator Match] 
# Comparing 11111011110100100100110001011111 with 11111011110100100100110001011111
# FPmultiplier: input A = 19908418729947327971718498091008.000000, input B = 0.004429, output OUT = -2183862660195260368111391213818478592.000000
# FPmultiplier: input A = 01110011011110110100011110010010, input B = 00111011100100010010010001000100, output OUT = 11111011110100100100110001011111
# refmod: input A = 01110011011110110100011110010010, input B = 00111011100100010010010001000100, output OUT = 11111011110100100100110001011111
#  
# UVM_INFO @ 1335: uvm_test_top.env_h.comp [Comparator Match] 
# Comparing 01111111100000000000000000000000 with 01111111100000000000000000000000
# FPmultiplier: input A = -381968386293320075366830702592.000000, input B = 55862.914062, output OUT = inf
# FPmultiplier: input A = 11110000100110100100011010011011, input B = 01000111010110100011011011101010, output OUT = 01111111100000000000000000000000
# refmod: input A = 11110000100110100100011010011011, input B = 01000111010110100011011011101010, output OUT = 01111111100000000000000000000000
#  
# UVM_INFO @ 1365: uvm_test_top.env_h.comp [Comparator Match] 
# Comparing 01101111100011100111011100100011 with 01101111100011100111011100100011
# FPmultiplier: input A = -19252427526637403812921344.000000, input B = 0.000000, output OUT = 88181797699984082136582848512.000000
# FPmultiplier: input A = 11101001011111101100110111000011, input B = 00001100001001111100100001100010, output OUT = 01101111100011100111011100100011
# refmod: input A = 11101001011111101100110111000011, input B = 00001100001001111100100001100010, output OUT = 01101111100011100111011100100011
#  
# UVM_INFO @ 1395: uvm_test_top.env_h.comp [Comparator Match] 
# Comparing 11111000100000111000000100111000 with 11111000100000111000000100111000
# FPmultiplier: input A = 208856102437875798866132992000.000000, input B = -13.770127, output OUT = -21337867377626071363284045406404608.000000
# FPmultiplier: input A = 01110000001010001011011001101110, input B = 11000001010111000101001001110001, output OUT = 11111000100000111000000100111000
# refmod: input A = 01110000001010001011011001101110, input B = 11000001010111000101001001110001, output OUT = 11111000100000111000000100111000
#  
# UVM_INFO @ 1425: uvm_test_top.env_h.comp [Comparator Match] 
# Comparing 10110110001001101111111110101101 with 10110110001001101111111110101101
# FPmultiplier: input A = 29642474268727481674498048.000000, input B = 103875640.000000, output OUT = -0.000002
# FPmultiplier: input A = 01101001110001000010100001001110, input B = 01001100110001100010000010000111, output OUT = 10110110001001101111111110101101
# refmod: input A = 01101001110001000010100001001110, input B = 01001100110001100010000010000111, output OUT = 10110110001001101111111110101101
#  
# UVM_INFO @ 1455: uvm_test_top.env_h.comp [Comparator Match] 
# Comparing 11110010000100010011001100011011 with 11110010000100010011001100011011
# FPmultiplier: input A = 22456572051456.000000, input B = -430618722697216.000000, output OUT = -2875974985266586786139138424832.000000
# FPmultiplier: input A = 01010101101000110110010010100000, input B = 11010111110000111101001010011110, output OUT = 11110010000100010011001100011011
# refmod: input A = 01010101101000110110010010100000, input B = 11010111110000111101001010011110, output OUT = 11110010000100010011001100011011
#  
# UVM_INFO @ 1485: uvm_test_top.env_h.comp [Comparator Match] 
# Comparing 01110111000101111101000000011001 with 01110111000101111101000000011001
# FPmultiplier: input A = 49.904259, input B = 1.236128, output OUT = 3079131045079614749862210205384704.000000
# FPmultiplier: input A = 01000010010001111001110111110110, input B = 00111111100111100011100101110100, output OUT = 01110111000101111101000000011001
# refmod: input A = 01000010010001111001110111110110, input B = 00111111100111100011100101110100, output OUT = 01110111000101111101000000011001
#  
# UVM_INFO @ 1515: uvm_test_top.env_h.comp [Comparator Match] 
# Comparing 11101101111110011111100000100111 with 11101101111110011111100000100111
# FPmultiplier: input A = -57.718266, input B = -136660913102884395192894357504.000000, output OUT = -9670220652634022757995118592.000000
# FPmultiplier: input A = 11000010011001101101111110000001, input B = 11101111110111001100100110100001, output OUT = 11101101111110011111100000100111
# refmod: input A = 11000010011001101101111110000001, input B = 11101111110111001100100110100001, output OUT = 11101101111110011111100000100111
#  
# UVM_INFO @ 1545: uvm_test_top.env_h.comp [Comparator Match] 
# Comparing 01000010011101101100000010010101 with 01000010011101101100000010010101
# FPmultiplier: input A = -0.112122, input B = -0.000000, output OUT = 61.688068
# FPmultiplier: input A = 10111101111001011010000000001101, input B = 10011000110011100001011101010010, output OUT = 01000010011101101100000010010101
