Lab_04/adder_wrong_refmod/01_log_adder_wrong_refmod.txt
# ----------------------------------------------------------------
# UVM-1.1d
# (C) 2007-2013 Mentor Graphics Corporation
# (C) 2007-2013 Cadence Design Systems, Inc.
# (C) 2006-2013 Synopsys, Inc.
# (C) 2011-2013 Cypress Semiconductor Corp.
# ----------------------------------------------------------------
# 
#   ***********       IMPORTANT RELEASE NOTES         ************
# 
#   You are using a version of the UVM library that has been compiled
#   with `UVM_NO_DEPRECATED undefined.
#   See http://www.eda.org/svdb/view.php?id=3313 for more details.
# 
#   You are using a version of the UVM library that has been compiled
#   with `UVM_OBJECT_MUST_HAVE_CONSTRUCTOR undefined.
#   See http://www.eda.org/svdb/view.php?id=3770 for more details.
# 
#       (Specify +UVM_NO_RELNOTES to turn off this notice)
# 
# UVM_INFO verilog_src/questa_uvm_pkg-1.2/src/questa_uvm_pkg.sv(215) @ 0: reporter [Questa UVM] QUESTA_UVM-1.2.3
# UVM_INFO verilog_src/questa_uvm_pkg-1.2/src/questa_uvm_pkg.sv(216) @ 0: reporter [Questa UVM]  questa_uvm::init(+struct)
# UVM_INFO @ 0: reporter [RNTST] Running test simple_test...
# adder: input A =  731014105, input B =  175121917, output OUT =  906136022
# adder: input A = 00101011100100100110001111011001, input B = 00001010011100000010010111111101, output OUT = 00110110000000101000100111010110
# refmod: input A =   731014105, input B =   175121917, output OUT =   555892188
# refmod: input A = 00101011100100100110001111011001, input B = 00001010011100000010010111111101, output OUT = 00100001001000100011110111011100
# UVM_INFO @ 45: reporter [MISCMP] Miscompare for exp.data: lhs = 'h21223ddc : rhs = 'h360289d6
# UVM_INFO @ 45: reporter [MISCMP] 1 Miscompare(s) for object tr@825 vs. exp@617
# UVM_WARNING @ 45: uvm_test_top.env_h.comp [Comparator Mismatch] 
# adder: input A =   80379531, input B = 2702342644, output OUT = 2782722175
# adder: input A = 00000100110010100111111010001011, input B = 10100001000100100111100111110100, output OUT = 10100101110111001111100001111111
# refmod: input A =    80379531, input B = -1592624652, output OUT =  1673004183
# refmod: input A = 00000100110010100111111010001011, input B = 10100001000100100111100111110100, output OUT = 01100011101110000000010010010111
# UVM_INFO @ 75: reporter [MISCMP] Miscompare for exp.data: lhs = 'h63b80497 : rhs = 'ha5dcf87f
# UVM_INFO @ 75: reporter [MISCMP] 1 Miscompare(s) for object tr@825 vs. exp@617
# UVM_WARNING @ 75: uvm_test_top.env_h.comp [Comparator Mismatch] 
# adder: input A =  260878708, input B = 3812952346, output OUT = 4073831054
# adder: input A = 00001111100011001011000101110100, input B = 11100011010001010000100100011010, output OUT = 11110010110100011011101010001110
# refmod: input A =   260878708, input B =  -482014950, output OUT =   742893658
# refmod: input A = 00001111100011001011000101110100, input B = 11100011010001010000100100011010, output OUT = 00101100010001111010100001011010
# UVM_INFO @ 105: reporter [MISCMP] Miscompare for exp.data: lhs = 'h2c47a85a : rhs = 'hf2d1ba8e
# UVM_INFO @ 105: reporter [MISCMP] 1 Miscompare(s) for object tr@825 vs. exp@617
# UVM_WARNING @ 105: uvm_test_top.env_h.comp [Comparator Mismatch] 
# adder: input A = 4264621708, input B = 4099804783, output OUT = 4069459195
# adder: input A = 11111110001100001111011010001100, input B = 11110100010111100000111001101111, output OUT = 11110010100011110000010011111011
# refmod: input A =   -30345588, input B =  -195162513, output OUT =   164816925
# refmod: input A = 11111110001100001111011010001100, input B = 11110100010111100000111001101111, output OUT = 00001001110100101110100000011101
# UVM_INFO @ 135: reporter [MISCMP] Miscompare for exp.data: lhs = 'h9d2e81d : rhs = 'hf28f04fb
# UVM_INFO @ 135: reporter [MISCMP] 1 Miscompare(s) for object tr@825 vs. exp@617
# UVM_WARNING @ 135: uvm_test_top.env_h.comp [Comparator Mismatch] 
# adder: input A = 2682128719, input B = 3715728877, output OUT = 2102890300
# adder: input A = 10011111110111100000100101001111, input B = 11011101011110011000010111101101, output OUT = 01111101010101111000111100111100
# refmod: input A = -1612838577, input B =  -579238419, output OUT = -1033600158
# refmod: input A = 10011111110111100000100101001111, input B = 11011101011110011000010111101101, output OUT = 11000010011001001000001101100010
# UVM_INFO @ 165: reporter [MISCMP] Miscompare for exp.data: lhs = 'hc2648362 : rhs = 'h7d578f3c
# UVM_INFO @ 165: reporter [MISCMP] 1 Miscompare(s) for object tr@825 vs. exp@617
# UVM_WARNING @ 165: uvm_test_top.env_h.comp [Comparator Mismatch] 
# adder: input A =  140412694, input B = 1111608308, output OUT = 1252021002
# adder: input A = 00001000010111101000011100010110, input B = 01000010010000011100101111110100, output OUT = 01001010101000000101001100001010
# refmod: input A =   140412694, input B =  1111608308, output OUT =  -971195614
# refmod: input A = 00001000010111101000011100010110, input B = 01000010010000011100101111110100, output OUT = 11000110000111001011101100100010
# UVM_INFO @ 195: reporter [MISCMP] Miscompare for exp.data: lhs = 'hc61cbb22 : rhs = 'h4aa0530a
# UVM_INFO @ 195: reporter [MISCMP] 1 Miscompare(s) for object tr@825 vs. exp@617
# UVM_WARNING @ 195: uvm_test_top.env_h.comp [Comparator Mismatch] 
# adder: input A = 3761234779, input B = 3947285453, output OUT = 3413552936
# adder: input A = 11100000001011111110001101011011, input B = 11101011010001101100101111001101, output OUT = 11001011011101101010111100101000
# refmod: input A =  -533732517, input B =  -347681843, output OUT =  -186050674
# refmod: input A = 11100000001011111110001101011011, input B = 11101011010001101100101111001101, output OUT = 11110100111010010001011110001110
# UVM_INFO @ 225: reporter [MISCMP] Miscompare for exp.data: lhs = 'hf4e9178e : rhs = 'hcb76af28
# UVM_INFO @ 225: reporter [MISCMP] 1 Miscompare(s) for object tr@825 vs. exp@617
# UVM_WARNING @ 225: uvm_test_top.env_h.comp [Comparator Mismatch] 
# adder: input A = 2531376513, input B = 3371244592, output OUT = 1607653809
# adder: input A = 10010110111000011011110110000001, input B = 11001000111100010001110000110000, output OUT = 01011111110100101101100110110001
# refmod: input A = -1763590783, input B =  -923722704, output OUT =  -839868079
# refmod: input A = 10010110111000011011110110000001, input B = 11001000111100010001110000110000, output OUT = 11001101111100001010000101010001
# UVM_INFO @ 255: reporter [MISCMP] Miscompare for exp.data: lhs = 'hcdf0a151 : rhs = 'h5fd2d9b1
# UVM_INFO @ 255: reporter [MISCMP] 1 Miscompare(s) for object tr@825 vs. exp@617
# UVM_WARNING @ 255: uvm_test_top.env_h.comp [Comparator Mismatch] 
# adder: input A = 3872680796, input B = 3462746173, output OUT = 3040459673
# adder: input A = 11100110110101000110101101011100, input B = 11001110011001010101000000111101, output OUT = 10110101001110011011101110011001
# refmod: input A =  -422286500, input B =  -832221123, output OUT =   409934623
# refmod: input A = 11100110110101000110101101011100, input B = 11001110011001010101000000111101, output OUT = 00011000011011110001101100011111
# UVM_INFO @ 285: reporter [MISCMP] Miscompare for exp.data: lhs = 'h186f1b1f : rhs = 'hb539bb99
# UVM_INFO @ 285: reporter [MISCMP] 1 Miscompare(s) for object tr@825 vs. exp@617
# UVM_WARNING @ 285: uvm_test_top.env_h.comp [Comparator Mismatch] 
# adder: input A = 2373230244, input B = 2938263881, output OUT = 1016526829
# adder: input A = 10001101011101001001111010100100, input B = 10101111001000100101100101001001, output OUT = 00111100100101101111011111101101
# refmod: input A = -1921737052, input B = -1356703415, output OUT =  -565033637
# refmod: input A = 10001101011101001001111010100100, input B = 10101111001000100101100101001001, output OUT = 11011110010100100100010101011011
# UVM_INFO @ 315: reporter [MISCMP] Miscompare for exp.data: lhs = 'hde52455b : rhs = 'h3c96f7ed
# UVM_INFO @ 315: reporter [MISCMP] 1 Miscompare(s) for object tr@825 vs. exp@617
# UVM_WARNING @ 315: uvm_test_top.env_h.comp [Comparator Mismatch] 
# adder: input A = 1541776121, input B = 1428688626, output OUT = 2970464747
# adder: input A = 01011011111001011010001011111001, input B = 01010101001010000000111011110010, output OUT = 10110001000011011011000111101011
# refmod: input A =  1541776121, input B =  1428688626, output OUT =   113087495
# refmod: input A = 01011011111001011010001011111001, input B = 01010101001010000000111011110010, output OUT = 00000110101111011001010000000111
# UVM_INFO @ 345: reporter [MISCMP] Miscompare for exp.data: lhs = 'h6bd9407 : rhs = 'hb10db1eb
# UVM_INFO @ 345: reporter [MISCMP] 1 Miscompare(s) for object tr@825 vs. exp@617
# UVM_WARNING @ 345: uvm_test_top.env_h.comp [Comparator Mismatch] 
# adder: input A = 3393944429, input B = 3716857736, output OUT = 2815834869
# adder: input A = 11001010010010110111101101101101, input B = 11011101100010101011111110001000, output OUT = 10100111110101100011101011110101
# refmod: input A =  -901022867, input B =  -578109560, output OUT =  -322913307
# refmod: input A = 11001010010010110111101101101101, input B = 11011101100010101011111110001000, output OUT = 11101100110000001011101111100101
# UVM_INFO @ 375: reporter [MISCMP] Miscompare for exp.data: lhs = 'hecc0bbe5 : rhs = 'ha7d63af5
# UVM_INFO @ 375: reporter [MISCMP] 1 Miscompare(s) for object tr@825 vs. exp@617
# UVM_WARNING @ 375: uvm_test_top.env_h.comp [Comparator Mismatch] 
# adder: input A = 1712994403, input B =  601358051, output OUT = 2314352454
# adder: input A = 01100110000110100011100001100011, input B = 00100011110101111111111011100011, output OUT = 10001001111100100011011101000110
# refmod: input A =  1712994403, input B =   601358051, output OUT =  1111636352
# refmod: input A = 01100110000110100011100001100011, input B = 00100011110101111111111011100011, output OUT = 01000010010000100011100110000000
# UVM_INFO @ 405: reporter [MISCMP] Miscompare for exp.data: lhs = 'h42423980 : rhs = 'h89f23746
# UVM_INFO @ 405: reporter [MISCMP] 1 Miscompare(s) for object tr@825 vs. exp@617
# UVM_WARNING @ 405: uvm_test_top.env_h.comp [Comparator Mismatch] 
# adder: input A = 3547324387, input B =  350842963, output OUT = 3898167350
# adder: input A = 11010011011011111101111111100011, input B = 00010100111010010111000001010011, output OUT = 11101000010110010101000000110110
# refmod: input A =  -747642909, input B =   350842963, output OUT = -1098485872
# refmod: input A = 11010011011011111101111111100011, input B = 00010100111010010111000001010011, output OUT = 10111110100001100110111110010000
# UVM_INFO @ 435: reporter [MISCMP] Miscompare for exp.data: lhs = 'hbe866f90 : rhs = 'he8595036
# UVM_INFO @ 435: reporter [MISCMP] 1 Miscompare(s) for object tr@825 vs. exp@617
# UVM_WARNING @ 435: uvm_test_top.env_h.comp [Comparator Mismatch] 
# adder: input A =   91952929, input B = 1965175865, output OUT = 2057128794
# adder: input A = 00000101011110110001011100100001, input B = 01110101001000100011010000111001, output OUT = 01111010100111010100101101011010
# refmod: input A =    91952929, input B =  1965175865, output OUT = -1873222936
# refmod: input A = 00000101011110110001011100100001, input B = 01110101001000100011010000111001, output OUT = 10010000010110001110001011101000
# UVM_INFO @ 465: reporter [MISCMP] Miscompare for exp.data: lhs = 'h9058e2e8 : rhs = 'h7a9d4b5a
# UVM_INFO @ 465: reporter [MISCMP] 1 Miscompare(s) for object tr@825 vs. exp@617
# UVM_WARNING @ 465: uvm_test_top.env_h.comp [Comparator Mismatch] 
# adder: input A = 3072927006, input B = 2608252870, output OUT = 1386212580
# adder: input A = 10110111001010010010010100011110, input B = 10011011011101101100011111000110, output OUT = 01010010100111111110110011100100
# refmod: input A = -1222040290, input B = -1686714426, output OUT =   464674136
# refmod: input A = 10110111001010010010010100011110, input B = 10011011011101101100011111000110, output OUT = 00011011101100100101110101011000
# UVM_INFO @ 495: reporter [MISCMP] Miscompare for exp.data: lhs = 'h1bb25d58 : rhs = 'h529fece4
# UVM_INFO @ 495: reporter [MISCMP] 1 Miscompare(s) for object tr@825 vs. exp@617
# UVM_WARNING @ 495: uvm_test_top.env_h.comp [Comparator Mismatch] 
# adder: input A =  876184097, input B =  614306907, output OUT = 1490491004
# adder: input A = 00110100001110011000001000100001, input B = 00100100100111011001010001011011, output OUT = 01011000110101110001011001111100
# refmod: input A =   876184097, input B =   614306907, output OUT =   261877190
# refmod: input A = 00110100001110011000001000100001, input B = 00100100100111011001010001011011, output OUT = 00001111100110111110110111000110
# UVM_INFO @ 525: reporter [MISCMP] Miscompare for exp.data: lhs = 'hf9bedc6 : rhs = 'h58d7167c
# UVM_INFO @ 525: reporter [MISCMP] 1 Miscompare(s) for object tr@825 vs. exp@617
# UVM_WARNING @ 525: uvm_test_top.env_h.comp [Comparator Mismatch] 
# adder: input A = 1568767450, input B = 1075088082, output OUT = 2643855532
# adder: input A = 01011101100000010111110111011010, input B = 01000000000101001000101011010010, output OUT = 10011101100101100000100010101100
# refmod: input A =  1568767450, input B =  1075088082, output OUT =   493679368
# refmod: input A = 01011101100000010111110111011010, input B = 01000000000101001000101011010010, output OUT = 00011101011011001111001100001000
# UVM_INFO @ 555: reporter [MISCMP] Miscompare for exp.data: lhs = 'h1d6cf308 : rhs = 'h9d9608ac
# UVM_INFO @ 555: reporter [MISCMP] 1 Miscompare(s) for object tr@825 vs. exp@617
# UVM_WARNING @ 555: uvm_test_top.env_h.comp [Comparator Mismatch] 
# adder: input A = 1678953407, input B =  444558830, output OUT = 2123512237
# adder: input A = 01100100000100101100101110111111, input B = 00011010011111110110110111101110, output OUT = 01111110100100100011100110101101
# refmod: input A =  1678953407, input B =   444558830, output OUT =  1234394577
# refmod: input A = 01100100000100101100101110111111, input B = 00011010011111110110110111101110, output OUT = 01001001100100110101110111010001
# UVM_INFO @ 585: reporter [MISCMP] Miscompare for exp.data: lhs = 'h49935dd1 : rhs = 'h7e9239ad
# UVM_INFO @ 585: reporter [MISCMP] 1 Miscompare(s) for object tr@825 vs. exp@617
# UVM_WARNING @ 585: uvm_test_top.env_h.comp [Comparator Mismatch] 
# adder: input A = 1221817855, input B = 4159049667, output OUT = 1085900226
# adder: input A = 01001000110100110111010111111111, input B = 11110111111001100000111111000011, output OUT = 01000000101110011000010111000010
# refmod: input A =  1221817855, input B =  -135917629, output OUT =  1357735484
# refmod: input A = 01001000110100110111010111111111, input B = 11110111111001100000111111000011, output OUT = 01010000111011010110011000111100
# UVM_INFO @ 615: reporter [MISCMP] Miscompare for exp.data: lhs = 'h50ed663c : rhs = 'h40b985c2
# UVM_INFO @ 615: reporter [MISCMP] 1 Miscompare(s) for object tr@825 vs. exp@617
# UVM_WARNING @ 615: uvm_test_top.env_h.comp [Comparator Mismatch] 
# adder: input A = 2630731409, input B =   42791131, output OUT = 2673522540
# adder: input A = 10011100110011011100011010010001, input B = 00000010100011001111000011011011, output OUT = 10011111010110101011011101101100
# refmod: input A = -1664235887, input B =    42791131, output OUT = -1707027018
# refmod: input A = 10011100110011011100011010010001, input B = 00000010100011001111000011011011, output OUT = 10011010010000001101010110110110
# UVM_INFO @ 645: reporter [MISCMP] Miscompare for exp.data: lhs = 'h9a40d5b6 : rhs = 'h9f5ab76c
# UVM_INFO @ 645: reporter [MISCMP] 1 Miscompare(s) for object tr@825 vs. exp@617
# UVM_WARNING @ 645: uvm_test_top.env_h.comp [Comparator Mismatch] 
# adder: input A = 2606837867, input B = 3476886790, output OUT = 1788757361
# adder: input A = 10011011011000010011000001101011, input B = 11001111001111010001010100000110, output OUT = 01101010100111100100010101110001
# refmod: input A = -1688129429, input B =  -818080506, output OUT =  -870048923
# refmod: input A = 10011011011000010011000001101011, input B = 11001111001111010001010100000110, output OUT = 11001100001001000001101101100101
# UVM_INFO @ 675: reporter [MISCMP] Miscompare for exp.data: lhs = 'hcc241b65 : rhs = 'h6a9e4571
# UVM_INFO @ 675: reporter [MISCMP] 1 Miscompare(s) for object tr@825 vs. exp@617
# UVM_WARNING @ 675: uvm_test_top.env_h.comp [Comparator Mismatch] 
# adder: input A = 3413573445, input B = 2073383015, output OUT = 1191989164
# adder: input A = 11001011011101101111111101000101, input B = 01111011100101010101000001100111, output OUT = 01000111000011000100111110101100
# refmod: input A =  -881393851, input B =  2073383015, output OUT =  1340190430
# refmod: input A = 11001011011101101111111101000101, input B = 01111011100101010101000001100111, output OUT = 01001111111000011010111011011110
# UVM_INFO @ 705: reporter [MISCMP] Miscompare for exp.data: lhs = 'h4fe1aede : rhs = 'h470c4fac
# UVM_INFO @ 705: reporter [MISCMP] 1 Miscompare(s) for object tr@825 vs. exp@617
# UVM_WARNING @ 705: uvm_test_top.env_h.comp [Comparator Mismatch] 
# adder: input A = 2799892819, input B = 3816473543, output OUT = 2321399066
# adder: input A = 10100110111000101111100101010011, input B = 11100011011110101100001111000111, output OUT = 10001010010111011011110100011010
# refmod: input A = -1495074477, input B =  -478493753, output OUT = -1016580724
# refmod: input A = 10100110111000101111100101010011, input B = 11100011011110101100001111000111, output OUT = 11000011011010000011010110001100
# UVM_INFO @ 735: reporter [MISCMP] Miscompare for exp.data: lhs = 'hc368358c : rhs = 'h8a5dbd1a
# UVM_INFO @ 735: reporter [MISCMP] 1 Miscompare(s) for object tr@825 vs. exp@617
# UVM_WARNING @ 735: uvm_test_top.env_h.comp [Comparator Mismatch] 
# adder: input A = 3038299759, input B = 3893807004, output OUT = 2637139467
# adder: input A = 10110101000110001100011001101111, input B = 11101000000101101100011110011100, output OUT = 10011101001011111000111000001011
# refmod: input A = -1256667537, input B =  -401160292, output OUT =  -855507245
# refmod: input A = 10110101000110001100011001101111, input B = 11101000000101101100011110011100, output OUT = 11001101000000011111111011010011
# UVM_INFO @ 765: reporter [MISCMP] Miscompare for exp.data: lhs = 'hcd01fed3 : rhs = 'h9d2f8e0b
# UVM_INFO @ 765: reporter [MISCMP] 1 Miscompare(s) for object tr@825 vs. exp@617
# UVM_WARNING @ 765: uvm_test_top.env_h.comp [Comparator Mismatch] 
# adder: input A = 1778436677, input B = 2353557030, output OUT = 4131993707
# adder: input A = 01101010000000001100101001000101, input B = 10001100010010000110111000100110, output OUT = 11110110010010010011100001101011
# refmod: input A =  1778436677, input B = -1941410266, output OUT =  -575120353
# refmod: input A = 01101010000000001100101001000101, input B = 10001100010010000110111000100110, output OUT = 11011101101110000101110000011111
# UVM_INFO @ 795: reporter [MISCMP] Miscompare for exp.data: lhs = 'hddb85c1f : rhs = 'hf649386b
# UVM_INFO @ 795: reporter [MISCMP] 1 Miscompare(s) for object tr@825 vs. exp@617
# UVM_WARNING @ 795: uvm_test_top.env_h.comp [Comparator Mismatch] 
# adder: input A = 3087568070, input B =  357238882, output OUT = 3444806952
# adder: input A = 10111000000010001000110011000110, input B = 00010101010010110000100001100010, output OUT = 11001101010100111001010100101000
# refmod: input A = -1207399226, input B =   357238882, output OUT = -1564638108
# refmod: input A = 10111000000010001000110011000110, input B = 00010101010010110000100001100010, output OUT = 10100010101111011000010001100100
# UVM_INFO @ 825: reporter [MISCMP] Miscompare for exp.data: lhs = 'ha2bd8464 : rhs = 'hcd539528
# UVM_INFO @ 825: reporter [MISCMP] 1 Miscompare(s) for object tr@825 vs. exp@617
# UVM_WARNING @ 825: uvm_test_top.env_h.comp [Comparator Mismatch] 
# adder: input A = 3913605622, input B = 1385076643, output OUT = 1003714969
# adder: input A = 11101001010001001110000111110110, input B = 01010010100011101001011110100011, output OUT = 00111011110100110111100110011001
# refmod: input A =  -381361674, input B =  1385076643, output OUT = -1766438317
# refmod: input A = 11101001010001001110000111110110, input B = 01010010100011101001011110100011, output OUT = 10010110101101100100101001010011
# UVM_INFO @ 855: reporter [MISCMP] Miscompare for exp.data: lhs = 'h96b64a53 : rhs = 'h3bd37999
# UVM_INFO @ 855: reporter [MISCMP] 1 Miscompare(s) for object tr@825 vs. exp@617
# UVM_WARNING @ 855: uvm_test_top.env_h.comp [Comparator Mismatch] 
# adder: input A = 2067343682, input B =  977174398, output OUT = 3044518080
# adder: input A = 01111011001110010010100101000010, input B = 00111010001111100111111101111110, output OUT = 10110101011101111010100011000000
# refmod: input A =  2067343682, input B =   977174398, output OUT =  1090169284
# refmod: input A = 01111011001110010010100101000010, input B = 00111010001111100111111101111110, output OUT = 01000000111110101010100111000100
# UVM_INFO @ 885: reporter [MISCMP] Miscompare for exp.data: lhs = 'h40faa9c4 : rhs = 'hb577a8c0
# UVM_INFO @ 885: reporter [MISCMP] 1 Miscompare(s) for object tr@825 vs. exp@617
# UVM_WARNING @ 885: uvm_test_top.env_h.comp [Comparator Mismatch] 
# adder: input A =  378808866, input B = 1032434645, output OUT = 1411243511
# adder: input A = 00010110100101000010101000100010, input B = 00111101100010011011001111010101, output OUT = 01010100000111011101110111110111
# refmod: input A =   378808866, input B =  1032434645, output OUT =  -653625779
# refmod: input A = 00010110100101000010101000100010, input B = 00111101100010011011001111010101, output OUT = 11011001000010100111011001001101
# UVM_INFO @ 915: reporter [MISCMP] Miscompare for exp.data: lhs = 'hd90a764d : rhs = 'h541dddf7
# UVM_INFO @ 915: reporter [MISCMP] 1 Miscompare(s) for object tr@825 vs. exp@617
# UVM_WARNING @ 915: uvm_test_top.env_h.comp [Comparator Mismatch] 
# adder: input A = 4125287197, input B = 2255869364, output OUT = 2086189265
# adder: input A = 11110101111000101110001100011101, input B = 10000110011101011101010110110100, output OUT = 01111100010110001011100011010001
# refmod: input A =  -169680099, input B = -2039097932, output OUT =  1869417833
# refmod: input A = 11110101111000101110001100011101, input B = 10000110011101011101010110110100, output OUT = 01101111011011010000110101101001
# UVM_INFO @ 945: reporter [MISCMP] Miscompare for exp.data: lhs = 'h6f6d0d69 : rhs = 'h7c58b8d1
# UVM_INFO @ 945: reporter [MISCMP] 1 Miscompare(s) for object tr@825 vs. exp@617
# UVM_WARNING @ 945: uvm_test_top.env_h.comp [Comparator Mismatch] 
# adder: input A =  785484068, input B = 3294069295, output OUT = 4079553363
# adder: input A = 00101110110100011000100100100100, input B = 11000100010101111000001000101111, output OUT = 11110011001010010000101101010011
# refmod: input A =   785484068, input B = -1000898001, output OUT =  1786382069
# refmod: input A = 00101110110100011000100100100100, input B = 11000100010101111000001000101111, output OUT = 01101010011110100000011011110101
# UVM_INFO @ 975: reporter [MISCMP] Miscompare for exp.data: lhs = 'h6a7a06f5 : rhs = 'hf3290b53
# UVM_INFO @ 975: reporter [MISCMP] 1 Miscompare(s) for object tr@825 vs. exp@617
# UVM_WARNING @ 975: uvm_test_top.env_h.comp [Comparator Mismatch] 
# adder: input A = 3061458211, input B = 2837765930, output OUT = 1604256845
# adder: input A = 10110110011110100010010100100011, input B = 10101001001001001101111100101010, output OUT = 01011111100111110000010001001101
# refmod: input A = -1233509085, input B = -1457201366, output OUT =   223692281
# refmod: input A = 10110110011110100010010100100011, input B = 10101001001001001101111100101010, output OUT = 00001101010101010100010111111001
# UVM_INFO @ 1005: reporter [MISCMP] Miscompare for exp.data: lhs = 'hd5545f9 : rhs = 'h5f9f044d
# UVM_INFO @ 1005: reporter [MISCMP] 1 Miscompare(s) for object tr@825 vs. exp@617
# UVM_WARNING @ 1005: uvm_test_top.env_h.comp [Comparator Mismatch] 
# adder: input A = 1544876891, input B = 1738059493, output OUT = 3282936384
# adder: input A = 01011100000101001111001101011011, input B = 01100111100110001010111011100101, output OUT = 11000011101011011010001001000000
# refmod: input A =  1544876891, input B =  1738059493, output OUT =  -193182602
# refmod: input A = 01011100000101001111001101011011, input B = 01100111100110001010111011100101, output OUT = 11110100011111000100010001110110
# UVM_INFO @ 1035: reporter [MISCMP] Miscompare for exp.data: lhs = 'hf47c4476 : rhs = 'hc3ada240
# UVM_INFO @ 1035: reporter [MISCMP] 1 Miscompare(s) for object tr@825 vs. exp@617
# UVM_WARNING @ 1035: uvm_test_top.env_h.comp [Comparator Mismatch] 
# adder: input A = 1961337323, input B = 2703619792, output OUT =  369989819
# adder: input A = 01110100111001111010000111101011, input B = 10100001001001011111011011010000, output OUT = 00010110000011011001100010111011
# refmod: input A =  1961337323, input B = -1591347504, output OUT =  -742282469
# refmod: input A = 01110100111001111010000111101011, input B = 10100001001001011111011011010000, output OUT = 11010011110000011010101100011011
# UVM_INFO @ 1065: reporter [MISCMP] Miscompare for exp.data: lhs = 'hd3c1ab1b : rhs = 'h160d98bb
# UVM_INFO @ 1065: reporter [MISCMP] 1 Miscompare(s) for object tr@825 vs. exp@617
# UVM_WARNING @ 1065: uvm_test_top.env_h.comp [Comparator Mismatch] 
# adder: input A = 1727143128, input B =  724064169, output OUT = 2451207297
# adder: input A = 01100110111100100001110011011000, input B = 00101011001010000101011110101001, output OUT = 10010010000110100111010010000001
# refmod: input A =  1727143128, input B =   724064169, output OUT =  1003078959
# refmod: input A = 01100110111100100001110011011000, input B = 00101011001010000101011110101001, output OUT = 00111011110010011100010100101111
# UVM_INFO @ 1095: reporter [MISCMP] Miscompare for exp.data: lhs = 'h3bc9c52f : rhs = 'h921a7481
# UVM_INFO @ 1095: reporter [MISCMP] 1 Miscompare(s) for object tr@825 vs. exp@617
# UVM_WARNING @ 1095: uvm_test_top.env_h.comp [Comparator Mismatch] 
# adder: input A =  246654637, input B = 1595147461, output OUT = 1841802098
# adder: input A = 00001110101100111010011010101101, input B = 01011111000101000000010011000101, output OUT = 01101101110001111010101101110010
# refmod: input A =   246654637, input B =  1595147461, output OUT = -1348492824
# refmod: input A = 00001110101100111010011010101101, input B = 01011111000101000000010011000101, output OUT = 10101111100111111010000111101000
# UVM_INFO @ 1125: reporter [MISCMP] Miscompare for exp.data: lhs = 'haf9fa1e8 : rhs = 'h6dc7ab72
# UVM_INFO @ 1125: reporter [MISCMP] 1 Miscompare(s) for object tr@825 vs. exp@617
# UVM_WARNING @ 1125: uvm_test_top.env_h.comp [Comparator Mismatch] 
# adder: input A = 1646293169, input B = 3201576091, output OUT =  552901964
# adder: input A = 01100010001000000111000010110001, input B = 10111110110101000010110010011011, output OUT = 00100000111101001001110101001100
# refmod: input A =  1646293169, input B = -1093391205, output OUT = -1555282922
# refmod: input A = 01100010001000000111000010110001, input B = 10111110110101000010110010011011, output OUT = 10100011010011000100010000010110
# UVM_INFO @ 1155: reporter [MISCMP] Miscompare for exp.data: lhs = 'ha34c4416 : rhs = 'h20f49d4c
# UVM_INFO @ 1155: reporter [MISCMP] 1 Miscompare(s) for object tr@825 vs. exp@617
# UVM_WARNING @ 1155: uvm_test_top.env_h.comp [Comparator Mismatch] 
# adder: input A = 3948884356, input B = 1247084803, output OUT =  901001863
# adder: input A = 11101011010111110011000110000100, input B = 01001010010101010000000100000011, output OUT = 00110101101101000011001010000111
# refmod: input A =  -346082940, input B =  1247084803, output OUT = -1593167743
# refmod: input A = 11101011010111110011000110000100, input B = 01001010010101010000000100000011, output OUT = 10100001000010100011000010000001
# UVM_INFO @ 1185: reporter [MISCMP] Miscompare for exp.data: lhs = 'ha10a3081 : rhs = 'h35b43287
# UVM_INFO @ 1185: reporter [MISCMP] 1 Miscompare(s) for object tr@825 vs. exp@617
# UVM_WARNING @ 1185: uvm_test_top.env_h.comp [Comparator Mismatch] 
# adder: input A = 1637527070, input B =  818587330, output OUT = 2456114400
# adder: input A = 01100001100110101010111000011110, input B = 00110000110010101010011011000010, output OUT = 10010010011001010101010011100000
# refmod: input A =  1637527070, input B =   818587330, output OUT =   818939740
# refmod: input A = 01100001100110101010111000011110, input B = 00110000110010101010011011000010, output OUT = 00110000110100000000011101011100
# UVM_INFO @ 1215: reporter [MISCMP] Miscompare for exp.data: lhs = 'h30d0075c : rhs = 'h926554e0
# UVM_INFO @ 1215: reporter [MISCMP] 1 Miscompare(s) for object tr@825 vs. exp@617
# UVM_WARNING @ 1215: uvm_test_top.env_h.comp [Comparator Mismatch] 
# adder: input A =  268764860, input B = 2202569796, output OUT = 2471334656
# adder: input A = 00010000000001010000011010111100, input B = 10000011010010001000110001000100, output OUT = 10010011010011011001001100000000
# refmod: input A =   268764860, input B = -2092397500, output OUT = -1933804936
# refmod: input A = 00010000000001010000011010111100, input B = 10000011010010001000110001000100, output OUT = 10001100101111000111101001111000
# UVM_INFO @ 1245: reporter [MISCMP] Miscompare for exp.data: lhs = 'h8cbc7a78 : rhs = 'h934d9300
# UVM_INFO @ 1245: reporter [MISCMP] 1 Miscompare(s) for object tr@825 vs. exp@617
# UVM_WARNING @ 1245: uvm_test_top.env_h.comp [Comparator Mismatch] 
# adder: input A = 1106214409, input B = 4183870257, output OUT =  995117370
# adder: input A = 01000001111011110111111000001001, input B = 11111001011000001100101100110001, output OUT = 00111011010100000100100100111010
# refmod: input A =  1106214409, input B =  -111097039, output OUT =  1217311448
# refmod: input A = 01000001111011110111111000001001, input B = 11111001011000001100101100110001, output OUT = 01001000100011101011001011011000
# UVM_INFO @ 1275: reporter [MISCMP] Miscompare for exp.data: lhs = 'h488eb2d8 : rhs = 'h3b50493a
# UVM_INFO @ 1275: reporter [MISCMP] 1 Miscompare(s) for object tr@825 vs. exp@617
# UVM_WARNING @ 1275: uvm_test_top.env_h.comp [Comparator Mismatch] 
# adder: input A = 4273562788, input B = 4156397442, output OUT = 4134992934
# adder: input A = 11111110101110010110010010100100, input B = 11110111101111011001011110000010, output OUT = 11110110011101101111110000100110
# refmod: input A =   -21404508, input B =  -138569854, output OUT =   117165346
# refmod: input A = 11111110101110010110010010100100, input B = 11110111101111011001011110000010, output OUT = 00000110111110111100110100100010
# UVM_INFO @ 1305: reporter [MISCMP] Miscompare for exp.data: lhs = 'h6fbcd22 : rhs = 'hf676fc26
# UVM_INFO @ 1305: reporter [MISCMP] 1 Miscompare(s) for object tr@825 vs. exp@617
# UVM_WARNING @ 1305: uvm_test_top.env_h.comp [Comparator Mismatch] 
# adder: input A = 1937459090, input B =  999367748, output OUT = 2936826838
# adder: input A = 01110011011110110100011110010010, input B = 00111011100100010010010001000100, output OUT = 10101111000011000110101111010110
# refmod: input A =  1937459090, input B =   999367748, output OUT =   938091342
# refmod: input A = 01110011011110110100011110010010, input B = 00111011100100010010010001000100, output OUT = 00110111111010100010001101001110
# UVM_INFO @ 1335: reporter [MISCMP] Miscompare for exp.data: lhs = 'h37ea234e : rhs = 'haf0c6bd6
# UVM_INFO @ 1335: reporter [MISCMP] 1 Miscompare(s) for object tr@825 vs. exp@617
# UVM_WARNING @ 1335: uvm_test_top.env_h.comp [Comparator Mismatch] 
