Lab_04/adder/01_log_adder.txt
# ----------------------------------------------------------------
# UVM-1.1d
# (C) 2007-2013 Mentor Graphics Corporation
# (C) 2007-2013 Cadence Design Systems, Inc.
# (C) 2006-2013 Synopsys, Inc.
# (C) 2011-2013 Cypress Semiconductor Corp.
# ----------------------------------------------------------------
# 
#   ***********       IMPORTANT RELEASE NOTES         ************
# 
#   You are using a version of the UVM library that has been compiled
#   with `UVM_NO_DEPRECATED undefined.
#   See http://www.eda.org/svdb/view.php?id=3313 for more details.
# 
#   You are using a version of the UVM library that has been compiled
#   with `UVM_OBJECT_MUST_HAVE_CONSTRUCTOR undefined.
#   See http://www.eda.org/svdb/view.php?id=3770 for more details.
# 
#       (Specify +UVM_NO_RELNOTES to turn off this notice)
# 
# UVM_INFO verilog_src/questa_uvm_pkg-1.2/src/questa_uvm_pkg.sv(215) @ 0: reporter [Questa UVM] QUESTA_UVM-1.2.3
# UVM_INFO verilog_src/questa_uvm_pkg-1.2/src/questa_uvm_pkg.sv(216) @ 0: reporter [Questa UVM]  questa_uvm::init(+struct)
# UVM_INFO @ 0: reporter [RNTST] Running test simple_test...
# adder: input A =  731014105, input B =  175121917, output OUT =  906136022
# adder: input A = 00101011100100100110001111011001, input B = 00001010011100000010010111111101, output OUT = 00110110000000101000100111010110
# refmod: input A =   731014105, input B =   175121917, output OUT =   906136022
# refmod: input A = 00101011100100100110001111011001, input B = 00001010011100000010010111111101, output OUT = 00110110000000101000100111010110
# UVM_INFO @ 45: uvm_test_top.env_h.comp [Comparator Match] 
# adder: input A =   80379531, input B = 2702342644, output OUT = 2782722175
# adder: input A = 00000100110010100111111010001011, input B = 10100001000100100111100111110100, output OUT = 10100101110111001111100001111111
# refmod: input A =    80379531, input B = -1592624652, output OUT = -1512245121
# refmod: input A = 00000100110010100111111010001011, input B = 10100001000100100111100111110100, output OUT = 10100101110111001111100001111111
# UVM_INFO @ 75: uvm_test_top.env_h.comp [Comparator Match] 
# adder: input A =  260878708, input B = 3812952346, output OUT = 4073831054
# adder: input A = 00001111100011001011000101110100, input B = 11100011010001010000100100011010, output OUT = 11110010110100011011101010001110
# refmod: input A =   260878708, input B =  -482014950, output OUT =  -221136242
# refmod: input A = 00001111100011001011000101110100, input B = 11100011010001010000100100011010, output OUT = 11110010110100011011101010001110
# UVM_INFO @ 105: uvm_test_top.env_h.comp [Comparator Match] 
# adder: input A = 4264621708, input B = 4099804783, output OUT = 4069459195
# adder: input A = 11111110001100001111011010001100, input B = 11110100010111100000111001101111, output OUT = 11110010100011110000010011111011
# refmod: input A =   -30345588, input B =  -195162513, output OUT =  -225508101
# refmod: input A = 11111110001100001111011010001100, input B = 11110100010111100000111001101111, output OUT = 11110010100011110000010011111011
# UVM_INFO @ 135: uvm_test_top.env_h.comp [Comparator Match] 
# adder: input A = 2682128719, input B = 3715728877, output OUT = 2102890300
# adder: input A = 10011111110111100000100101001111, input B = 11011101011110011000010111101101, output OUT = 01111101010101111000111100111100
# refmod: input A = -1612838577, input B =  -579238419, output OUT =  2102890300
# refmod: input A = 10011111110111100000100101001111, input B = 11011101011110011000010111101101, output OUT = 01111101010101111000111100111100
# UVM_INFO @ 165: uvm_test_top.env_h.comp [Comparator Match] 
# adder: input A =  140412694, input B = 1111608308, output OUT = 1252021002
# adder: input A = 00001000010111101000011100010110, input B = 01000010010000011100101111110100, output OUT = 01001010101000000101001100001010
# refmod: input A =   140412694, input B =  1111608308, output OUT =  1252021002
# refmod: input A = 00001000010111101000011100010110, input B = 01000010010000011100101111110100, output OUT = 01001010101000000101001100001010
# UVM_INFO @ 195: uvm_test_top.env_h.comp [Comparator Match] 
# adder: input A = 3761234779, input B = 3947285453, output OUT = 3413552936
# adder: input A = 11100000001011111110001101011011, input B = 11101011010001101100101111001101, output OUT = 11001011011101101010111100101000
# refmod: input A =  -533732517, input B =  -347681843, output OUT =  -881414360
# refmod: input A = 11100000001011111110001101011011, input B = 11101011010001101100101111001101, output OUT = 11001011011101101010111100101000
# UVM_INFO @ 225: uvm_test_top.env_h.comp [Comparator Match] 
# adder: input A = 2531376513, input B = 3371244592, output OUT = 1607653809
# adder: input A = 10010110111000011011110110000001, input B = 11001000111100010001110000110000, output OUT = 01011111110100101101100110110001
# refmod: input A = -1763590783, input B =  -923722704, output OUT =  1607653809
# refmod: input A = 10010110111000011011110110000001, input B = 11001000111100010001110000110000, output OUT = 01011111110100101101100110110001
# UVM_INFO @ 255: uvm_test_top.env_h.comp [Comparator Match] 
# adder: input A = 3872680796, input B = 3462746173, output OUT = 3040459673
# adder: input A = 11100110110101000110101101011100, input B = 11001110011001010101000000111101, output OUT = 10110101001110011011101110011001
# refmod: input A =  -422286500, input B =  -832221123, output OUT = -1254507623
# refmod: input A = 11100110110101000110101101011100, input B = 11001110011001010101000000111101, output OUT = 10110101001110011011101110011001
# UVM_INFO @ 285: uvm_test_top.env_h.comp [Comparator Match] 
# adder: input A = 2373230244, input B = 2938263881, output OUT = 1016526829
# adder: input A = 10001101011101001001111010100100, input B = 10101111001000100101100101001001, output OUT = 00111100100101101111011111101101
# refmod: input A = -1921737052, input B = -1356703415, output OUT =  1016526829
# refmod: input A = 10001101011101001001111010100100, input B = 10101111001000100101100101001001, output OUT = 00111100100101101111011111101101
# UVM_INFO @ 315: uvm_test_top.env_h.comp [Comparator Match] 
# adder: input A = 1541776121, input B = 1428688626, output OUT = 2970464747
# adder: input A = 01011011111001011010001011111001, input B = 01010101001010000000111011110010, output OUT = 10110001000011011011000111101011
# refmod: input A =  1541776121, input B =  1428688626, output OUT = -1324502549
# refmod: input A = 01011011111001011010001011111001, input B = 01010101001010000000111011110010, output OUT = 10110001000011011011000111101011
# UVM_INFO @ 345: uvm_test_top.env_h.comp [Comparator Match] 
# adder: input A = 3393944429, input B = 3716857736, output OUT = 2815834869
# adder: input A = 11001010010010110111101101101101, input B = 11011101100010101011111110001000, output OUT = 10100111110101100011101011110101
# refmod: input A =  -901022867, input B =  -578109560, output OUT = -1479132427
# refmod: input A = 11001010010010110111101101101101, input B = 11011101100010101011111110001000, output OUT = 10100111110101100011101011110101
# UVM_INFO @ 375: uvm_test_top.env_h.comp [Comparator Match] 
# adder: input A = 1712994403, input B =  601358051, output OUT = 2314352454
# adder: input A = 01100110000110100011100001100011, input B = 00100011110101111111111011100011, output OUT = 10001001111100100011011101000110
# refmod: input A =  1712994403, input B =   601358051, output OUT = -1980614842
# refmod: input A = 01100110000110100011100001100011, input B = 00100011110101111111111011100011, output OUT = 10001001111100100011011101000110
# UVM_INFO @ 405: uvm_test_top.env_h.comp [Comparator Match] 
# adder: input A = 3547324387, input B =  350842963, output OUT = 3898167350
# adder: input A = 11010011011011111101111111100011, input B = 00010100111010010111000001010011, output OUT = 11101000010110010101000000110110
# refmod: input A =  -747642909, input B =   350842963, output OUT =  -396799946
# refmod: input A = 11010011011011111101111111100011, input B = 00010100111010010111000001010011, output OUT = 11101000010110010101000000110110
# UVM_INFO @ 435: uvm_test_top.env_h.comp [Comparator Match] 
# adder: input A =   91952929, input B = 1965175865, output OUT = 2057128794
# adder: input A = 00000101011110110001011100100001, input B = 01110101001000100011010000111001, output OUT = 01111010100111010100101101011010
# refmod: input A =    91952929, input B =  1965175865, output OUT =  2057128794
# refmod: input A = 00000101011110110001011100100001, input B = 01110101001000100011010000111001, output OUT = 01111010100111010100101101011010
# UVM_INFO @ 465: uvm_test_top.env_h.comp [Comparator Match] 
# adder: input A = 3072927006, input B = 2608252870, output OUT = 1386212580
# adder: input A = 10110111001010010010010100011110, input B = 10011011011101101100011111000110, output OUT = 01010010100111111110110011100100
# refmod: input A = -1222040290, input B = -1686714426, output OUT =  1386212580
# refmod: input A = 10110111001010010010010100011110, input B = 10011011011101101100011111000110, output OUT = 01010010100111111110110011100100
# UVM_INFO @ 495: uvm_test_top.env_h.comp [Comparator Match] 
# adder: input A =  876184097, input B =  614306907, output OUT = 1490491004
# adder: input A = 00110100001110011000001000100001, input B = 00100100100111011001010001011011, output OUT = 01011000110101110001011001111100
# refmod: input A =   876184097, input B =   614306907, output OUT =  1490491004
# refmod: input A = 00110100001110011000001000100001, input B = 00100100100111011001010001011011, output OUT = 01011000110101110001011001111100
# UVM_INFO @ 525: uvm_test_top.env_h.comp [Comparator Match] 
# adder: input A = 1568767450, input B = 1075088082, output OUT = 2643855532
# adder: input A = 01011101100000010111110111011010, input B = 01000000000101001000101011010010, output OUT = 10011101100101100000100010101100
# refmod: input A =  1568767450, input B =  1075088082, output OUT = -1651111764
# refmod: input A = 01011101100000010111110111011010, input B = 01000000000101001000101011010010, output OUT = 10011101100101100000100010101100
# UVM_INFO @ 555: uvm_test_top.env_h.comp [Comparator Match] 
# adder: input A = 1678953407, input B =  444558830, output OUT = 2123512237
# adder: input A = 01100100000100101100101110111111, input B = 00011010011111110110110111101110, output OUT = 01111110100100100011100110101101
# refmod: input A =  1678953407, input B =   444558830, output OUT =  2123512237
# refmod: input A = 01100100000100101100101110111111, input B = 00011010011111110110110111101110, output OUT = 01111110100100100011100110101101
# UVM_INFO @ 585: uvm_test_top.env_h.comp [Comparator Match] 
# adder: input A = 1221817855, input B = 4159049667, output OUT = 1085900226
# adder: input A = 01001000110100110111010111111111, input B = 11110111111001100000111111000011, output OUT = 01000000101110011000010111000010
# refmod: input A =  1221817855, input B =  -135917629, output OUT =  1085900226
# refmod: input A = 01001000110100110111010111111111, input B = 11110111111001100000111111000011, output OUT = 01000000101110011000010111000010
# UVM_INFO @ 615: uvm_test_top.env_h.comp [Comparator Match] 
# adder: input A = 2630731409, input B =   42791131, output OUT = 2673522540
# adder: input A = 10011100110011011100011010010001, input B = 00000010100011001111000011011011, output OUT = 10011111010110101011011101101100
# refmod: input A = -1664235887, input B =    42791131, output OUT = -1621444756
# refmod: input A = 10011100110011011100011010010001, input B = 00000010100011001111000011011011, output OUT = 10011111010110101011011101101100
# UVM_INFO @ 645: uvm_test_top.env_h.comp [Comparator Match] 
# adder: input A = 2606837867, input B = 3476886790, output OUT = 1788757361
# adder: input A = 10011011011000010011000001101011, input B = 11001111001111010001010100000110, output OUT = 01101010100111100100010101110001
# refmod: input A = -1688129429, input B =  -818080506, output OUT =  1788757361
# refmod: input A = 10011011011000010011000001101011, input B = 11001111001111010001010100000110, output OUT = 01101010100111100100010101110001
# UVM_INFO @ 675: uvm_test_top.env_h.comp [Comparator Match] 
# adder: input A = 3413573445, input B = 2073383015, output OUT = 1191989164
# adder: input A = 11001011011101101111111101000101, input B = 01111011100101010101000001100111, output OUT = 01000111000011000100111110101100
# refmod: input A =  -881393851, input B =  2073383015, output OUT =  1191989164
# refmod: input A = 11001011011101101111111101000101, input B = 01111011100101010101000001100111, output OUT = 01000111000011000100111110101100
# UVM_INFO @ 705: uvm_test_top.env_h.comp [Comparator Match] 
# adder: input A = 2799892819, input B = 3816473543, output OUT = 2321399066
# adder: input A = 10100110111000101111100101010011, input B = 11100011011110101100001111000111, output OUT = 10001010010111011011110100011010
# refmod: input A = -1495074477, input B =  -478493753, output OUT = -1973568230
# refmod: input A = 10100110111000101111100101010011, input B = 11100011011110101100001111000111, output OUT = 10001010010111011011110100011010
# UVM_INFO @ 735: uvm_test_top.env_h.comp [Comparator Match] 
# adder: input A = 3038299759, input B = 3893807004, output OUT = 2637139467
# adder: input A = 10110101000110001100011001101111, input B = 11101000000101101100011110011100, output OUT = 10011101001011111000111000001011
# refmod: input A = -1256667537, input B =  -401160292, output OUT = -1657827829
# refmod: input A = 10110101000110001100011001101111, input B = 11101000000101101100011110011100, output OUT = 10011101001011111000111000001011
# UVM_INFO @ 765: uvm_test_top.env_h.comp [Comparator Match] 
# adder: input A = 1778436677, input B = 2353557030, output OUT = 4131993707
# adder: input A = 01101010000000001100101001000101, input B = 10001100010010000110111000100110, output OUT = 11110110010010010011100001101011
# refmod: input A =  1778436677, input B = -1941410266, output OUT =  -162973589
# refmod: input A = 01101010000000001100101001000101, input B = 10001100010010000110111000100110, output OUT = 11110110010010010011100001101011
# UVM_INFO @ 795: uvm_test_top.env_h.comp [Comparator Match] 
# adder: input A = 3087568070, input B =  357238882, output OUT = 3444806952
# adder: input A = 10111000000010001000110011000110, input B = 00010101010010110000100001100010, output OUT = 11001101010100111001010100101000
# refmod: input A = -1207399226, input B =   357238882, output OUT =  -850160344
# refmod: input A = 10111000000010001000110011000110, input B = 00010101010010110000100001100010, output OUT = 11001101010100111001010100101000
# UVM_INFO @ 825: uvm_test_top.env_h.comp [Comparator Match] 
# adder: input A = 3913605622, input B = 1385076643, output OUT = 1003714969
# adder: input A = 11101001010001001110000111110110, input B = 01010010100011101001011110100011, output OUT = 00111011110100110111100110011001
# refmod: input A =  -381361674, input B =  1385076643, output OUT =  1003714969
# refmod: input A = 11101001010001001110000111110110, input B = 01010010100011101001011110100011, output OUT = 00111011110100110111100110011001
# UVM_INFO @ 855: uvm_test_top.env_h.comp [Comparator Match] 
# adder: input A = 2067343682, input B =  977174398, output OUT = 3044518080
# adder: input A = 01111011001110010010100101000010, input B = 00111010001111100111111101111110, output OUT = 10110101011101111010100011000000
# refmod: input A =  2067343682, input B =   977174398, output OUT = -1250449216
# refmod: input A = 01111011001110010010100101000010, input B = 00111010001111100111111101111110, output OUT = 10110101011101111010100011000000
# UVM_INFO @ 885: uvm_test_top.env_h.comp [Comparator Match] 
# adder: input A =  378808866, input B = 1032434645, output OUT = 1411243511
# adder: input A = 00010110100101000010101000100010, input B = 00111101100010011011001111010101, output OUT = 01010100000111011101110111110111
# refmod: input A =   378808866, input B =  1032434645, output OUT =  1411243511
# refmod: input A = 00010110100101000010101000100010, input B = 00111101100010011011001111010101, output OUT = 01010100000111011101110111110111
# UVM_INFO @ 915: uvm_test_top.env_h.comp [Comparator Match] 
# adder: input A = 4125287197, input B = 2255869364, output OUT = 2086189265
# adder: input A = 11110101111000101110001100011101, input B = 10000110011101011101010110110100, output OUT = 01111100010110001011100011010001
# refmod: input A =  -169680099, input B = -2039097932, output OUT =  2086189265
# refmod: input A = 11110101111000101110001100011101, input B = 10000110011101011101010110110100, output OUT = 01111100010110001011100011010001
# UVM_INFO @ 945: uvm_test_top.env_h.comp [Comparator Match] 
# adder: input A =  785484068, input B = 3294069295, output OUT = 4079553363
# adder: input A = 00101110110100011000100100100100, input B = 11000100010101111000001000101111, output OUT = 11110011001010010000101101010011
# refmod: input A =   785484068, input B = -1000898001, output OUT =  -215413933
# refmod: input A = 00101110110100011000100100100100, input B = 11000100010101111000001000101111, output OUT = 11110011001010010000101101010011
# UVM_INFO @ 975: uvm_test_top.env_h.comp [Comparator Match] 
# adder: input A = 3061458211, input B = 2837765930, output OUT = 1604256845
# adder: input A = 10110110011110100010010100100011, input B = 10101001001001001101111100101010, output OUT = 01011111100111110000010001001101
# refmod: input A = -1233509085, input B = -1457201366, output OUT =  1604256845
# refmod: input A = 10110110011110100010010100100011, input B = 10101001001001001101111100101010, output OUT = 01011111100111110000010001001101
# UVM_INFO @ 1005: uvm_test_top.env_h.comp [Comparator Match] 
# adder: input A = 1544876891, input B = 1738059493, output OUT = 3282936384
# adder: input A = 01011100000101001111001101011011, input B = 01100111100110001010111011100101, output OUT = 11000011101011011010001001000000
# refmod: input A =  1544876891, input B =  1738059493, output OUT = -1012030912
# refmod: input A = 01011100000101001111001101011011, input B = 01100111100110001010111011100101, output OUT = 11000011101011011010001001000000
# UVM_INFO @ 1035: uvm_test_top.env_h.comp [Comparator Match] 
# adder: input A = 1961337323, input B = 2703619792, output OUT =  369989819
# adder: input A = 01110100111001111010000111101011, input B = 10100001001001011111011011010000, output OUT = 00010110000011011001100010111011
# refmod: input A =  1961337323, input B = -1591347504, output OUT =   369989819
# refmod: input A = 01110100111001111010000111101011, input B = 10100001001001011111011011010000, output OUT = 00010110000011011001100010111011
# UVM_INFO @ 1065: uvm_test_top.env_h.comp [Comparator Match] 
# adder: input A = 1727143128, input B =  724064169, output OUT = 2451207297
# adder: input A = 01100110111100100001110011011000, input B = 00101011001010000101011110101001, output OUT = 10010010000110100111010010000001
# refmod: input A =  1727143128, input B =   724064169, output OUT = -1843759999
# refmod: input A = 01100110111100100001110011011000, input B = 00101011001010000101011110101001, output OUT = 10010010000110100111010010000001
# UVM_INFO @ 1095: uvm_test_top.env_h.comp [Comparator Match] 
# adder: input A =  246654637, input B = 1595147461, output OUT = 1841802098
# adder: input A = 00001110101100111010011010101101, input B = 01011111000101000000010011000101, output OUT = 01101101110001111010101101110010
# refmod: input A =   246654637, input B =  1595147461, output OUT =  1841802098
# refmod: input A = 00001110101100111010011010101101, input B = 01011111000101000000010011000101, output OUT = 01101101110001111010101101110010
# UVM_INFO @ 1125: uvm_test_top.env_h.comp [Comparator Match] 
# adder: input A = 1646293169, input B = 3201576091, output OUT =  552901964
# adder: input A = 01100010001000000111000010110001, input B = 10111110110101000010110010011011, output OUT = 00100000111101001001110101001100
# refmod: input A =  1646293169, input B = -1093391205, output OUT =   552901964
# refmod: input A = 01100010001000000111000010110001, input B = 10111110110101000010110010011011, output OUT = 00100000111101001001110101001100
# UVM_INFO @ 1155: uvm_test_top.env_h.comp [Comparator Match] 
# adder: input A = 3948884356, input B = 1247084803, output OUT =  901001863
# adder: input A = 11101011010111110011000110000100, input B = 01001010010101010000000100000011, output OUT = 00110101101101000011001010000111
# refmod: input A =  -346082940, input B =  1247084803, output OUT =   901001863
# refmod: input A = 11101011010111110011000110000100, input B = 01001010010101010000000100000011, output OUT = 00110101101101000011001010000111
# UVM_INFO @ 1185: uvm_test_top.env_h.comp [Comparator Match] 
# adder: input A = 1637527070, input B =  818587330, output OUT = 2456114400
# adder: input A = 01100001100110101010111000011110, input B = 00110000110010101010011011000010, output OUT = 10010010011001010101010011100000
# refmod: input A =  1637527070, input B =   818587330, output OUT = -1838852896
# refmod: input A = 01100001100110101010111000011110, input B = 00110000110010101010011011000010, output OUT = 10010010011001010101010011100000
# UVM_INFO @ 1215: uvm_test_top.env_h.comp [Comparator Match] 
# adder: input A =  268764860, input B = 2202569796, output OUT = 2471334656
# adder: input A = 00010000000001010000011010111100, input B = 10000011010010001000110001000100, output OUT = 10010011010011011001001100000000
# refmod: input A =   268764860, input B = -2092397500, output OUT = -1823632640
# refmod: input A = 00010000000001010000011010111100, input B = 10000011010010001000110001000100, output OUT = 10010011010011011001001100000000
# UVM_INFO @ 1245: uvm_test_top.env_h.comp [Comparator Match] 
# adder: input A = 1106214409, input B = 4183870257, output OUT =  995117370
# adder: input A = 01000001111011110111111000001001, input B = 11111001011000001100101100110001, output OUT = 00111011010100000100100100111010
# refmod: input A =  1106214409, input B =  -111097039, output OUT =   995117370
# refmod: input A = 01000001111011110111111000001001, input B = 11111001011000001100101100110001, output OUT = 00111011010100000100100100111010
# UVM_INFO @ 1275: uvm_test_top.env_h.comp [Comparator Match] 
# adder: input A = 4273562788, input B = 4156397442, output OUT = 4134992934
# adder: input A = 11111110101110010110010010100100, input B = 11110111101111011001011110000010, output OUT = 11110110011101101111110000100110
# refmod: input A =   -21404508, input B =  -138569854, output OUT =  -159974362
# refmod: input A = 11111110101110010110010010100100, input B = 11110111101111011001011110000010, output OUT = 11110110011101101111110000100110
# UVM_INFO @ 1305: uvm_test_top.env_h.comp [Comparator Match] 
# adder: input A = 1937459090, input B =  999367748, output OUT = 2936826838
# adder: input A = 01110011011110110100011110010010, input B = 00111011100100010010010001000100, output OUT = 10101111000011000110101111010110
# refmod: input A =  1937459090, input B =   999367748, output OUT = -1358140458
# refmod: input A = 01110011011110110100011110010010, input B = 00111011100100010010010001000100, output OUT = 10101111000011000110101111010110
# UVM_INFO @ 1335: uvm_test_top.env_h.comp [Comparator Match] 
# adder: input A = 4036642459, input B = 1197094634, output OUT =  938769797
# adder: input A = 11110000100110100100011010011011, input B = 01000111010110100011011011101010, output OUT = 00110111111101000111110110000101
# refmod: input A =  -258324837, input B =  1197094634, output OUT =   938769797
# refmod: input A = 11110000100110100100011010011011, input B = 01000111010110100011011011101010, output OUT = 00110111111101000111110110000101
# UVM_INFO @ 1365: uvm_test_top.env_h.comp [Comparator Match] 
# adder: input A = 3917401539, input B =  203933794, output OUT = 4121335333
# adder: input A = 11101001011111101100110111000011, input B = 00001100001001111100100001100010, output OUT = 11110101101001101001011000100101
# refmod: input A =  -377565757, input B =   203933794, output OUT =  -173631963
# refmod: input A = 11101001011111101100110111000011, input B = 00001100001001111100100001100010, output OUT = 11110101101001101001011000100101
# UVM_INFO @ 1395: uvm_test_top.env_h.comp [Comparator Match] 
# adder: input A = 1881716334, input B = 3244053105, output OUT =  830802143
# adder: input A = 01110000001010001011011001101110, input B = 11000001010111000101001001110001, output OUT = 00110001100001010000100011011111
# refmod: input A =  1881716334, input B = -1050914191, output OUT =   830802143
# refmod: input A = 01110000001010001011011001101110, input B = 11000001010111000101001001110001, output OUT = 00110001100001010000100011011111
# UVM_INFO @ 1425: uvm_test_top.env_h.comp [Comparator Match] 
# adder: input A = 1774463054, input B = 1288052871, output OUT = 3062515925
# adder: input A = 01101001110001000010100001001110, input B = 01001100110001100010000010000111, output OUT = 10110110100010100100100011010101
# refmod: input A =  1774463054, input B =  1288052871, output OUT = -1232451371
# refmod: input A = 01101001110001000010100001001110, input B = 01001100110001100010000010000111, output OUT = 10110110100010100100100011010101
# UVM_INFO @ 1455: uvm_test_top.env_h.comp [Comparator Match] 
# adder: input A = 1436771488, input B = 3619934878, output OUT =  761739070
# adder: input A = 01010101101000110110010010100000, input B = 11010111110000111101001010011110, output OUT = 00101101011001110011011100111110
# refmod: input A =  1436771488, input B =  -675032418, output OUT =   761739070
# refmod: input A = 01010101101000110110010010100000, input B = 11010111110000111101001010011110, output OUT = 00101101011001110011011100111110
# UVM_INFO @ 1485: uvm_test_top.env_h.comp [Comparator Match] 
# adder: input A = 1111989750, input B = 1067334004, output OUT = 2179323754
# adder: input A = 01000010010001111001110111110110, input B = 00111111100111100011100101110100, output OUT = 10000001111001011101011101101010
# refmod: input A =  1111989750, input B =  1067334004, output OUT = -2115643542
# refmod: input A = 01000010010001111001110111110110, input B = 00111111100111100011100101110100, output OUT = 10000001111001011101011101101010
# UVM_INFO @ 1515: uvm_test_top.env_h.comp [Comparator Match] 
# adder: input A = 3261521793, input B = 4024224161, output OUT = 2990778658
# adder: input A = 11000010011001101101111110000001, input B = 11101111110111001100100110100001, output OUT = 10110010010000111010100100100010
# refmod: input A = -1033445503, input B =  -270743135, output OUT = -1304188638
# refmod: input A = 11000010011001101101111110000001, input B = 11101111110111001100100110100001, output OUT = 10110010010000111010100100100010
# UVM_INFO @ 1545: uvm_test_top.env_h.comp [Comparator Match] 
# adder: input A = 3185942541, input B = 2563643218, output OUT = 1454618463
# adder: input A = 10111101111001011010000000001101, input B = 10011000110011100001011101010010, output OUT = 01010110101100111011011101011111
# refmod: input A = -1109024755, input B = -1731324078, output OUT =  1454618463
# refmod: input A = 10111101111001011010000000001101, input B = 10011000110011100001011101010010, output OUT = 01010110101100111011011101011111
# UVM_INFO @ 1575: uvm_test_top.env_h.comp [Comparator Match] 
# adder: input A = 3631628400, input B = 3195793936, output OUT = 2532455040
# adder: input A = 11011000011101100100000001110000, input B = 10111110011110111111001000010000, output OUT = 10010110111100100011001010000000
# refmod: input A =  -663338896, input B = -1099173360, output OUT = -1762512256
# refmod: input A = 11011000011101100100000001110000, input B = 10111110011110111111001000010000, output OUT = 10010110111100100011001010000000
# UVM_INFO @ 1605: uvm_test_top.env_h.comp [Comparator Match] 
# adder: input A =   48072737, input B = 2635766235, output OUT = 2683838972
# adder: input A = 00000010110111011000100000100001, input B = 10011101000110101001100111011011, output OUT = 10011111111110000010000111111100
# refmod: input A =    48072737, input B = -1659201061, output OUT = -1611128324
# refmod: input A = 00000010110111011000100000100001, input B = 10011101000110101001100111011011, output OUT = 10011111111110000010000111111100
# UVM_INFO @ 1635: uvm_test_top.env_h.comp [Comparator Match] 
# adder: input A =   69971449, input B = 2520594892, output OUT = 2590566341
# adder: input A = 00000100001010111010110111111001, input B = 10010110001111010011100111001100, output OUT = 10011010011010001110011111000101
# refmod: input A =    69971449, input B = -1774372404, output OUT = -1704400955
# refmod: input A = 00000100001010111010110111111001, input B = 10010110001111010011100111001100, output OUT = 10011010011010001110011111000101
# UVM_INFO @ 1665: uvm_test_top.env_h.comp [Comparator Match] 
# adder: input A = 1953219277, input B = 1325665225, output OUT = 3278884502
# adder: input A = 01110100011010111100001011001101, input B = 01001111000001000000101111001001, output OUT = 11000011011011111100111010010110
# refmod: input A =  1953219277, input B =  1325665225, output OUT = -1016082794
# refmod: input A = 01110100011010111100001011001101, input B = 01001111000001000000101111001001, output OUT = 11000011011011111100111010010110
# UVM_INFO @ 1695: uvm_test_top.env_h.comp [Comparator Match] 
# adder: input A = 1036759395, input B = 3326597267, output OUT =   68389366
# adder: input A = 00111101110010111011000101100011, input B = 11000110010001111101100010010011, output OUT = 00000100000100111000100111110110
# refmod: input A =  1036759395, input B =  -968370029, output OUT =    68389366
# refmod: input A = 00111101110010111011000101100011, input B = 11000110010001111101100010010011, output OUT = 00000100000100111000100111110110
# UVM_INFO @ 1725: uvm_test_top.env_h.comp [Comparator Match] 
# adder: input A =  938463625, input B = 2396117996, output OUT = 3334581621
# adder: input A = 00110111111011111101000110001001, input B = 10001110110100011101101111101100, output OUT = 11000110110000011010110101110101
# refmod: input A =   938463625, input B = -1898849300, output OUT =  -960385675
# refmod: input A = 00110111111011111101000110001001, input B = 10001110110100011101101111101100, output OUT = 11000110110000011010110101110101
# UVM_INFO @ 1755: uvm_test_top.env_h.comp [Comparator Match] 
# adder: input A = 3512808076, input B = 2967625437, output OUT = 2185466217
# adder: input A = 11010001011000010011001010001100, input B = 10110000111000100101111011011101, output OUT = 10000010010000111001000101101001
# refmod: input A =  -782159220, input B = -1327341859, output OUT = -2109501079
# refmod: input A = 11010001011000010011001010001100, input B = 10110000111000100101111011011101, output OUT = 10000010010000111001000101101001
# UVM_INFO @ 1785: uvm_test_top.env_h.comp [Comparator Match] 
# adder: input A = 3335520344, input B = 1734826974, output OUT =  775380022
# adder: input A = 11000110110100000000000001011000, input B = 01100111011001110101101111011110, output OUT = 00101110001101110101110000110110
# refmod: input A =  -959446952, input B =  1734826974, output OUT =   775380022
# refmod: input A = 11000110110100000000000001011000, input B = 01100111011001110101101111011110, output OUT = 00101110001101110101110000110110
# UVM_INFO @ 1815: uvm_test_top.env_h.comp [Comparator Match] 
# adder: input A =  874323444, input B = 3339903393, output OUT = 4214226837
# adder: input A = 00110100000111010001110111110100, input B = 11000111000100101110000110100001, output OUT = 11111011001011111111111110010101
# refmod: input A =   874323444, input B =  -955063903, output OUT =   -80740459
# refmod: input A = 00110100000111010001110111110100, input B = 11000111000100101110000110100001, output OUT = 11111011001011111111111110010101
# UVM_INFO @ 1845: uvm_test_top.env_h.comp [Comparator Match] 
# adder: input A = 1778563994, input B = 3890478202, output OUT = 1374074900
# adder: input A = 01101010000000101011101110011010, input B = 11100111111000111111110001111010, output OUT = 01010001111001101011100000010100
# refmod: input A =  1778563994, input B =  -404489094, output OUT =  1374074900
# refmod: input A = 01101010000000101011101110011010, input B = 11100111111000111111110001111010, output OUT = 01010001111001101011100000010100
# UVM_INFO @ 1875: uvm_test_top.env_h.comp [Comparator Match] 
# adder: input A =  966729293, input B = 1390763847, output OUT = 2357493140
# adder: input A = 00111001100111110001111001001101, input B = 01010010111001010101111101000111, output OUT = 10001100100001000111110110010100
# refmod: input A =   966729293, input B =  1390763847, output OUT = -1937474156
# refmod: input A = 00111001100111110001111001001101, input B = 01010010111001010101111101000111, output OUT = 10001100100001000111110110010100
# UVM_INFO @ 1905: uvm_test_top.env_h.comp [Comparator Match] 
# adder: input A = 4060926317, input B =  532341165, output OUT =  298300186
# adder: input A = 11110010000011001101000101101101, input B = 00011111101110101110000110101101, output OUT = 00010001110001111011001100011010
# refmod: input A =  -234040979, input B =   532341165, output OUT =   298300186
# refmod: input A = 11110010000011001101000101101101, input B = 00011111101110101110000110101101, output OUT = 00010001110001111011001100011010
# UVM_INFO @ 1935: uvm_test_top.env_h.comp [Comparator Match] 
# adder: input A = 2012210426, input B =  115068029, output OUT = 2127278455
# adder: input A = 01110111111011111110010011111010, input B = 00000110110110111100110001111101, output OUT = 01111110110010111011000101110111
# refmod: input A =  2012210426, input B =   115068029, output OUT =  2127278455
# refmod: input A = 01110111111011111110010011111010, input B = 00000110110110111100110001111101, output OUT = 01111110110010111011000101110111
# UVM_INFO @ 1965: uvm_test_top.env_h.comp [Comparator Match] 
# adder: input A = 2768212564, input B = 4037103683, output OUT = 2510348951
# adder: input A = 10100100111111111001001001010100, input B = 11110000101000010101000001000011, output OUT = 10010101101000001110001010010111
# refmod: input A = -1526754732, input B =  -257863613, output OUT = -1784618345
# refmod: input A = 10100100111111111001001001010100, input B = 11110000101000010101000001000011, output OUT = 10010101101000001110001010010111
# UVM_INFO @ 1995: uvm_test_top.env_h.comp [Comparator Match] 
# adder: input A =  933122992, input B = 2098971737, output OUT = 3032094729
# adder: input A = 00110111100111100101001110110000, input B = 01111101000110111100010001011001, output OUT = 10110100101110100001100000001001
# refmod: input A =   933122992, input B =  2098971737, output OUT = -1262872567
# refmod: input A = 00110111100111100101001110110000, input B = 01111101000110111100010001011001, output OUT = 10110100101110100001100000001001
# UVM_INFO @ 2025: uvm_test_top.env_h.comp [Comparator Match] 
# adder: input A =  313422485, input B = 4215900269, output OUT =  234355458
# adder: input A = 00010010101011100111001010010101, input B = 11111011010010011000100001101101, output OUT = 00001101111101111111101100000010
# refmod: input A =   313422485, input B =   -79067027, output OUT =   234355458
# refmod: input A = 00010010101011100111001010010101, input B = 11111011010010011000100001101101, output OUT = 00001101111101111111101100000010
